{
	"cur":{
		"iso":"EUR",
		"sym":"€"
	},
	"phn":{
		"code":"376",
		"reg":"",
		"frm":""
	},
	"postal":{
		"cityline":"##p## ##t##",
		"pre":"AD",
		"reg":"[AD -]?([0-9]{3})+",
		"frm":"pa"
	},
	"weekstart":"mon"
}
