{
	"cur":{
		"iso":"BRL",
		"sym":"R$"
	},
	"dte":{
		"dte":"##m##/##j##/##y##",
		"dte_long":"##j## de ##M## de ##Y##",
		"tme":"##G##h##i##"
	},
	"phn":{
		"code":"55",
		"reg":"",
		"frm":""
	},
	"postal":{
		"cityline":"##t##-##s##_##p##",
		"lbl":"CEP",
		"reg":"([0-9]{5})[ -]?([0-9]{3})",
		"frm":"a-b"
	},
	"prov":{
		"lbl":{
			"pt":"estados",
			"en":"State"
		},
		"list":{
			"AC":"Acre",
			"AL":"Alagoas",
			"AP":"Amapá",
			"AM":"Amazonas",
			"BA":"Bahia",
			"CE":"Ceará",
			"DF":"Distrito Federal",
			"ES":"Espírito Santo",
			"GO":"Goiás",
			"MA":"Maranhão",
			"MT":"Mato Grosso",
			"MS":"Mato Grosso do Sul",
			"MG":"Minas Gerais",
			"PA":"Pará",
			"PB":"Paraíba",
			"PR":"Paraná",
			"PE":"Pernambuco",
			"PI":"Piauí",
			"RJ":"Rio de Janeiro",
			"RN":"Rio Grande do Norte",
			"RS":"Rio Grande do Sul",
			"RO":"Rondônia",
			"RR":"Roraima",
			"SC":"Santa Catarina",
			"SP":"São Paulo",
			"SE":"Sergipe",
			"TO":"Tocantins"
		}
	},	
	"weekstart":"sun"
}
