{
	"cur":{
		"iso":"CRC",
		"sym":"₡"
	},
	"phn":{
		"code":"506",
		"reg":"",
		"frm":""
	},
	"postal":{
		"cityline":"##S##, ##t##_##p##",
		"reg":"([0-9]{5})"
	},
	"prov":{
		"lbl":"Provincia",
		"list":{
			"A":{
				"es":{"n":"Alajuela", "a":"A"}
			},
			"C":{
				"es":{"n":"Cartago", "a":"C"}
			},
			"G":{
				"es":{"n":"Guanacaste", "a":"G"}
			},
			"H":{
				"es":{"n":"Heredia", "a":"H"}
			},
			"L":{
				"es":{"n":"Limón", "a":"L"}
			},
			"P":{
				"es":{"n":"Puntarenas", "a":"P"}
			},
			"SJ":{
				"es":{"n":"San José", "a":"SJ"}
			}
		}
	},
	"weekstart":"sun"
}
