{
	"cur":{
		"iso":"JPY",
		"sym":"¥"
	},
	"dte":{
		"dte":"##Y##年##m##月##j##日",
		"dte_long":"##Y##年##m##月##j##日",
		"tme":"##g##時##i##分",
		"tme_sec":"##g##:##i##:##s##",
		"tme_mde":"12",
		"tme_am":"午前##t##",
		"tme_pm":"午後##t##"
	},
	"phn":{
		"code":"81",
		"reg":"",
		"frm":""
	},
	"postal":{
		"reg":"([0-9]{3})+[ -]?([0-9]{4})?",
		"frm":"a-b"
	},
	"weekstart":"sun"
}
