{
	"cur":{
		"iso":"MYR",
		"sym":"RM"
	},
	"dte":{
		"dte":"##j##/##m##/##Y##",
		"tme":"##g##:##i##",
		"tme_sec":"##g##:##i##:##s##",
		"tme_mde":"12",
		"tme_am":"##t## am",
		"tme_pm":"##t## pm"
	},
	"phn":{
		"code":"60",
		"reg":"",
		"frm":""
	},
	"postal":{
		"cityline":"##p## ##t##_##S##",
		"reg":"([0-9]{5})"
	},
	"prov":{
		"lbl":{
			"zsm":"Negeri",
			"en":"State"
		},
		"list":{
			"JHR":{
				"zsm":{"n":"Johor Darul Ta'zim"}
			},
			"KDH":{
				"zsm":{"n":"Kedah Darul Aman"}
			},
			"KTN":{
				"zsm":{"n":"Kelantan Darul Naim"}
			},
			"KUL":{
				"zsm":{"n":"Kuala Lumpur"}
			},
			"LBN":{
				"zsm":{"n":"Labuan"}
			},
			"MLK":{
				"zsm":{"n":"Melaka"}
			},
			"NSN":{
				"zsm":{"n":"Negeri Sembilan Darul Khusus"}
			},
			"PHG":{
				"zsm":{"n":"Pahang Darul Makmur"}
			},
			"PNG":{
				"zsm":{"n":"Penang"}
			},
			"PRK":{
				"zsm":{"n":"Perak Darul Ridzuan"}
			},
			"PLS":{
				"zsm":{"n":"Perlis Indera Kayangan"}
			},
			"PJY":{
				"zsm":{"n":"Putrajaya"}
			},
			"SBH":{
				"zsm":{"n":"Sabah"}
			},
			"SWK":{
				"zsm":{"n":"Sarawak"}
			},
			"SGR":{
				"zsm":{"n":"Selangor Darul Ehsan"}
			},
			"TRG":{
				"zsm":{"n":"Terengganu Darul Iman"}
			}
		}
	},
	"weekstart":"mon"
}
