{
	"cur":{
		"iso":"EUR",
		"sym":"€"
	},
	"dte":{
		"dte":"##j##-##m##-##Y##",
		"dte_long":"##j## ##M## ##Y##",
		"tme":"##G##.##i## u."
	},
	"phn":{
		"code":"31",
		"reg":"",
		"frm":""
	},
	"postal":{
		"lbl":"Postcode",
		"reg":"([0-9]{4})+[ -]?([a-zA-Z]{2})?",
		"frm":"a b"
	},
	"weekstart":"mon"
}
