{
	"cur":{
		"iso":"RUB",
		"sym":"₽"
	},
	"dte":{
		"dte":"##j##.##n##.##Y##",
		"dte_long":"##j## ##M## ##Y## г."
	},
	"phn":{
		"code":"7",
		"reg":"",
		"frm":""
	},
	"postal":{
		"cityline":"##t##_##p##",
		"reg":"([0-9]{3})+"
	},
	"weekstart":"mon"
}
