{
	"cur":{
		"iso":"SEK",
		"sym":"kr"
	},
	"dte":{
		"dte":"##Y##-##m##-##d##",
		"tme":"##G##.##i##",
		"tme_sec":"##G##.##i##.##s##"
	},
	"phn":{
		"code":"46",
		"reg":"",
		"frm":""
	},
	"postal":{
		"cityline":"##p## ##t##",
		"reg":"([0-9]{3})+[ -]?([0-9]{2})+",
		"frm":"a b"
	},
	"weekstart":"mon"
}
