{
	"cur":{
		"iso":"TRY",
		"sym":"₺"
	},
	"dte":{
		"dte":"##j##.##m##.##Y##"
	},
	"phn":{
		"code":"90",
		"reg":"",
		"frm":""
	},
	"postal":{
		"reg":"([0-9]{5})+"
	},
	"weekstart":"mon"
}
