{
	"water":{},
	"land":{
		"AS": {
			"pts":{},
			"map":"M996.73 498.86l-.12.03-.14-.14.28-.1.08-.06.34.03-.2.04-.24.2z"
		},
		"AU": {
			"pts":{},
			"map":"M833.08 490.23l-.1-.25.04-.07.05-.03.07.01.26.27.1.07.17.2.37.02.45-.21.2.08.1-.01.33-.2.22-.06.14-.15.14.16.33.19.1.2.14.09.05.06-.2.2-.03.23-.2-.02-.26.36-.95.6-.85-.51-.37-.35-.24-.49-.06-.39zm18.3 12.57l.02.14.15.14.12-.13-.06-.12-.02-.21-.15-.2-.07.17-.06.04-.06.13.12.04zm6.26 2.85h.12l.2-.06.1-.14.1.04.22-.26.15-.12.38-.04-.26-.32-.05-.03-.35.13-.46.08-.18.18-.19.28-.04.25.03.08.23-.07zm8.14-18.65l.07-.2-.13-.09-.14.2.12.16.08-.07zm-15.48 3.44l.4-.52.1-.51-.14.03v.23l-.06.15-.06.05-.1.1-.25.41-.1.1v.13l.2-.17zm-11.41-.6l.22.43.06-.04.1-.38-.1-.18v-.3l-.04-.08-.12.16-.14.03.09.22-.07.13zm10.8 1.18l.25-.21.02-.12-.08.06-.5.25-.25.28.44-.2.12-.06zm1.3 11.5l.04-.03.08-.09-.04-.25-.09.12v.24zm14.69-14.16l-.02.08.03.18.15.08.23-.16-.21-.3-.18.12zm-15.65 14.02l.03.13.05.02.17-.01.06-.24-.08-.03-.17.02-.06.12zm1.07-3.96l-.28-.1-.1-.13-.01-.12.11-.36.08-.1.07-.04.18-.2-.04-.1-.06-.07-.07-.04-.11.26-.13.01-.12-.12-.05-.22.01-.13-.12-.01-.2.13-.14.2-.3.2-.04.42.04.33-.1.14-.15.1.07.05.27.02.53.13.31-.02.37.06.1-.14.05-.17-.04-.02-.13.04zm39.9 28.04l.06-.04.1-.13-.07-.16-.12-.22.03-.2-.08-.05-.09.01-.1-.07-.23-.1-.08.22.42.63.15.1zm5.04 6.1l.07-.09.02-.2.16-.53.58-1.37.02-.26-.17-.2-.05-.53-.06-.03-.1.03-.12.08-.1.15.12.06.15.27-.04.25-.1.2-.42.37.06.34-.03.16-.14.29-.06.3.08.55.13.15zm1.02 4.8l.06-.05-.04-.36.11-.5-.1-.03-.14.06-.04.28.03.3.12.3zm-.05.54l-.02.5.09.13.07.01.24-.85-.05-.05-.24-.05-.1.3zm-8.02-15.81l.09-.04-.08-.24-.09-.05-.01.17-.06.12.07.05.08-.01zm-1.63-.38v-.14l-.05-.3-.1.08-.02.23.06.22.1-.1zm-10.6-11.5l.2.2.13.26.17.1.08-.1.04-.14-.12-.22-.06-.28-.08-.01-.05.04-.12.04h-.24l.04.11zm-10.67-22.93l.17-.18-.11-.14-.23.02-.06.14.06.1.17.06zm18.5 28.37l.06-.05.04-.26-.1.07-.08.1-.05.12.07.03.06-.01zm.15.45h.09l.07-.03v-.05l-.11-.16-.07-.2-.11.38.13.06zm-26.49-9.5l-.14.13.04.11.1-.04.31-.06-.02-.15-.2-.15-.09.17zM875 573.77l-.16-.14-.37.01-.02.08-.02.18.16.1.41-.23zm7.82 5.83l-.08-.07-.25-.1-.5-.65-.18-.12-.26.38-.2.14.12.15.18-.02.08.23-.04.16.37.57.07.15.07.1.09.08.29-.1.25-.23h.04l.02-.1-.2-.17.1-.12.03-.28zm-.17 1.92l-.05-.04h-.07l-.21.06.02.08.17.18.14-.28zm-8.64-7.14l.4-.02.23.13-.02-.07-.1-.16-.07-.07-.2-.05-.24.24zm-.96 7.1l.03-.23-.03-.03-.09.13-.11.06.1.38.1-.3zm-23.97-84.36l-.07.05-.04.08v.1l.26.06.06-.03.11-.1-.05-.24-.12-.12-.15.2zm63.2 142.3l-.16.95.02.21.1-.19.18-.64.04-.5-.17.17zm-29.38-58.66l-.35.19h-.4l-.13.08.03.08.23.18.3.02.3-.08.1.22.14-.03.2-.2-.15-.24-.27-.22zm.04 6.64l-.03-.14-.08-.12v-.14l.04-.28-.07-.42.02-.63-.03-.33.01-.34.07-.42-.03-.44-.04-.21-.01-.22.02-.62-.22-.34-.5-.27h-.19l-.27.34h-.15l-.54-.1-.12.11-.22.33-.13.13-.19-.06-.19-.1-.14.01-.14.09-.31.04-.32-.01-.2.1-.17.14-.06.19.03.22-.17-.2-.18-.13-.2.14-.21.1-.72.07-.57-.16-.8-.35-.13-.1-.12-.13-.13-.08-.3-.13-.13-.15-.13-.04-.16.02-.22-.11-.19-.21-.16-.02-.18.1-.32-.02-.63-.24-.28-.18-.02.4-.18.73.05.36.1.4.19.57v.18l.04.1.38.83.39.68.5.72.07.33-.07.33.17-.02.1-.16.02.16.06.14.44.48.03.12-.17.4-.1-.33-.17-.25-.48-.4.1.84.1.33.6 1.44.09.1.13.06.12.11.2.3.34.64.2.18.28-.06.42.13.14-.03.09.05.05.15h-.33l-.32.08-.03.12.09.14.08.4.4-.14.63.03.38-.04.42.35.37.07.1-.03.24-.42.13-.5.1-.2.1-.16-.24-.22-.01-.1.03-.14.49.38.2-.15.04-.34V591l.06-.15.12-.06.05-.2.02-.14-.13-.32v-.19l.3.39.12.53.23-.14.03-.09-.03-.36.1-.12.34.1.3.2.01.1-.02.11-.07.09-.24-.1-.1.16.13.39.25.37.14-.1.3-.05.1-.1-.07-.74-.11-.54-.01-.6.03-.32.14-.25.1-.27-.01-.34.05-.32.12-.33.17-.25.08-.06-.05-.07.08-.21.13-.16.08.2-.1.07-.07.08.2.15.06.12.02.14-.02.17.04.14.11.02.03-.17-.03-.21.03-.19zm14.55-47.2l-.33-.6-.08-.47-.11-.4-.52-1.14-.23-.65.12-.66-.21-2.1.23-1.05-.11-.12-.28-.16-.11-.17-.18-.4-.02-.78-.35-.48-.37-.22-.26-.4-.17-.33-.02-.18-.1-.31-.3-.22-.19-.1-.42-.31-.2-.31-.44-.9-.19-.23-.4-.26-.31-.01-.2-.07-.74-.56-.23-.12-.19-.27-.27-.29-.16-.2-.24-.23-.17-.85v-.82l-.06-.98-.25-.48-.14-.15-.15.05-.01.3.04.22h-.1l-.39-.26-.47-.29-.26-.32-.18-.3-.16.01-.1.05-.1.37.17.64-.1.09-.14-.15-.27-.33-.14.1-.2.05-.15-.34-.15-.2-.2-.7-.17-.77-.02-.56-.35-.3-.13-.53-.11-.15-.1-.37-.4-.48-.42-.34-.34-.33-.3-.45.14-.34.2.07.23-.03-.18-.34-.17-.22-.44-.43-.2-.1-.45-.07-.5-.39-.3-.16-.2-.03-.26-.06-.17-.22-.31-.07-.44-.44-.2-.43-.11-.16-.15-.12-.22.07-.17.03-.4-.06-.12-.18-.25-.23-.48-.06-.38-.14-.3-.14-.3-.18-.26-.3-.24-.4.04-.5.06-.34-.3-.12-.54-.7-.02-.27.14-.58.15-1-.21-.73-.42-.9.03-.45h-.2l-.24-.1-.32-.44-.25-.3-.16-.26-.18-.36.03-.3.04-.19.02-.52-.23-.5-.07-.52-.22-.64.06-.43-.04-.35-.07-.31.07-.2.03-.24-.3-.25-.32-.19-.42-.33-.74-.52-.17-.4-.32-.35-.42.14-.3.06-.3.27-.4.2-.39-.18-.18-.15-.14-.52-.18-.58-.15-.28-.1-.35.1-.84-.16-.4-.05-.6-.15-.67-.17-.34.01-.28-.3-.4-.1-.28-.18-.1-.23-.17-.03-.22.02-.15.13-.27.07-.34-.31-.09-.22-.02-.15-.1-.17-.17-.06-.53v-.57l-.04-.35-.1-.26-.06-.28-.16-.3-.47-.38.03-.15.11-.2-.17-.11h-.24l-.14.26-.23.23-.43.18-.09.92-.27 1-.24.75.04.23-.02.22-.13-.1-.12-.12-.18.3-.33.76-.03.4.2.1.13.1.16.04.07.1.04.2.1.16-.02.18-.12-.07h-.26l-.14.16-.33.3.08.9-.15.48-.15.36-.17.7.02.36.15.26.16.39-.1.52-.1.38.23 1.1.06.57-.12.4-.36 1.18-.17.86.06.47-.16.44-.18.7-.2.52-.7 1.06-.14.52-.24.64-.5.38-.39.23-.84.23h-.48l-.25-.15-.14-.12-.57-.2-.7-.47-.52-.15-.27-.46-.02-.2-.1-.25-.28-.32-.53-.11-.54-.24-.33.03-.72-.2-.49-.3-.44-.4-.58-.7-.5-.19-.62-.29-.37-.24-.21-.12-.25-.18-.22.04h-.38l-.25-.16-.02-.14.03-.1.02-.2-.09-.02h-.08l-.07.05-.1.04-.34-.15-.48-.24-.09-.22-.15-.26-.65-.38-.38-.31-.84-.46-.22-.22-.07-.2-.06-.27.19-.3.19-.2.57-.85.17-.15.22-.23.19-.62.1-.35-.17-.54v-.9l.66-.35.18-.04.17-.08.2.1.13.18.14-.03.37-.63-.06-.26-.15-.22.05-.15 1.14-1.23-.14-.3-.17-.07-.32.03-.3-.27-.2-.5-.27-.01-.48.5-.06.13.12.06.1.31-.19.36h-.19l-.3-.03-.15-.26-.06-.4-.2-.1-.22.07-.19.14-.13.04-.1-.1-.02-.16.29-.27.23-.18.02-.06-.17-.05.03-.13.22-.23h-.1l-.28.23-.29.14-.37.3-.55.19-.37.26-.53-.08-.48-.26-.1-.13-.25-.2-.53.21-.33-.02-.19-.07-.32-.05-.27-.2-.65-.3-.69-.06-.34.01-.25-.15-.24-.1-.47-.06-.2-.23-.25-.48-.18-.13-.29-.05-.3.22-.19.1-.35-.38-.62-.4-.2-.06-.1.1-.07.18-.12.02-.14-.08-.24-.24-.16-.04-.41.25.03.09.33.13.36.35.17.08.4-.1.55.07.55.44-.08.23-.04.3.01.34-.01.23.23.25-.1.02-.26-.06-.2.07-.2.11-.08.34-.1-.16-.34-.15-.2.12-.32.15-.3-.06-.19-.08-.45.13h-.8l-.27-.2-.08-.32-.06-.07-.07.14-.13.17-.48.03-.07.07.02.16-.02.2-.18.02-.23.05.02.25.04.2-.08.1-.25-.19-.12-.19-.18-.06-.13.07-.04.17.02.44-.12.05-.33-.02-.15.09-.23.55-.42.21-.06.3-.03.24.35.44-.17.23-.17.19-.18.08-.37.07-.28.2-.11.21-.03.2-.07.27-.12.31-.02.17-.25.16-.45.5-.22.51.3.28.33.2h.26v.04l-.26.2.16.22.25.2.15.02.11.08-.23.05-.36.02-.07.21.05.25.06.21-.04.15-.13-.1-.06-.16-.3-.33-.22-.1-.32-.07-.09.1.01.5-.06.22-.1-.13-.03-.36-.3-.3-1.18-.3-.17-.02-.27.04-.19.12-.02.11-.12.1-.2.1-.19.17-.12.13v.17l.14.32.1.09-.02.15-.15-.16-.12-.05-.13.25-.11.05.03-.69.12-.47.1-.27.1-.22-.04-.11-.82-.65-.34-.53-.26-.3-.39-.28-.2-.18-.46-.28-.54-.19-.26-.26-.29-.09-.35.13-.03.24.04.23-.28.38-.3.2-.25-.23-.22-.17-.22.13-.07.2-.1.08-.1-.14-.12-.32-.18-.12-.18.05.05.26.1.13-.02.2-.13.1-.02.18-.08.26v.35l-.2.07-.15.28-.1-.06-.04-.18-.06-.2-.22-.06-.09.17-.05.06-.08.02.06-.14v-.27l.06-.27-.21-.1-.09.06v.23l-.05.35-.2.06-.2.15H819l-.15.08-.05.18-.24.2v.22l.17.23.01.2.4.2-.03.2-.06.1-.14-.04-.32-.18-.32-.03-.1-.08-.04.06v.13l-.12.1-.18.01-.21.15.14.23-.02.09.07.1.32.02.13-.02.02.2-.04.19-.13.06-.12-.18-.62-.34-.16-.03-.03.1.02.15-.13.17-.22.22-.16-.06-.18.05-.12.38-.04.38.2.27.14.35.28-.43.12-.05v.18l-.11.2-.07.23-.02.27-.19.01-.2-.04-.06.09-.07.2.04.28.14.1.32-.01.28.02.24.1.04.09-.22-.05-.45.02-.22-.03-.43.02-.31-.16-.15-.15-.24-.04-.23.06-.13.22-.16.06-.36-.55-.22-.04-.11.13.1.34-.05.22-.13.15h-.15l-.1.05.07.15.25.37.2.16.19.22.09.2.22-.02.05.16-.13.23v.35l-.08.02-.13-.08-.25-.22-.13-.04-.06.06-.02.15.06.4-.13.56.03.17-.02.14-.11-.1-.13-.22-.26-.34-.33-.74-.35-.5-.18-.43-.3-.8-.14-.02-.2.35-.2.45-.15.23-.34.22-.2.23-.26.08-.28.26-.2.22-.27.51-.05.33.01.36.12.5.13.72.2.07.14.12-.04.22-.23.14-.71.68-.48.25-.14.17-.17.36-.26.46-.11.29-.27.55-.43.63-.44.46-.51.37-.33.18-1.24.52-.66.2-1.19.14-.5.24-.63-.08-.71-.05-.98.79-.82.19-.72.14-.3.13-.72.45-.4.2-.78.24-.31-.02-.43-.22-.4.05-.44-.03-.36.02-.28.18-1.65.94-.33.26-.34.37-.49.34-.39.4-.81.4-.85.32-.41.26-.3.36-.52.95-.1.24-.2.25-.28.1-.18.07.06-.48-.2-.42.15-.81-.05-.24-.29.16-.18.17-.45 1.17-.31.92.23.52.08.3v.33l-.09.48.01.3-.02.41-.57.95-.18.41-.19.8-.02.37.01.55.24.48.18.3.29.87.34.57.56 1.16.61.94.04.36-.07.48.04.5-.11.15-.24.18-.27-.23-.14-.19-.18-.71-.07-.04-.11.3-.13.15-.12-.1-.09-.11-.02-.13.04-.14.04-.54-.25-.3-.23-.33-.25-.08-.15.15v.2l.33.57.2.61.33.39.2.1.2.23-.04.52-.15.2-.13.1-.42-.12-.1-.37-.33-.74-.11-.28-.1-.08-.03.14v.26l-.05.1h-.07l-.13-.14-.12-.07-.07.02.13.19.28.54 1.05 1.33.89 1.55.2.62.1 1.35.08.33.53.67.5.78.15.39v.33l.1.32.64.85.29.92.03.34-.08.58.07 1.02.07.56.23 1.1.27.8.33.5.45 1.1.67 1.27.11.63-.03 1.67-.05.55-.15.1-.1.23.15 1.1.03.63-.22.6-.25.52-.43.36-.5.02-.23-.22-.29-.21-.05.96-.01.82.09.32.01.37.33.29.19-.12.23-.01.8.4.44.34.73.9.64.24.84.42.96.13.78.02 1.22.22.26-.08.52-.07.4-.14.35-.09 1.07-.84 1.04-.87.52-.06.47-.01.56-.3.51-.9.27-.2.34-.22.99-.13.58.1.31-.15.8-.16 1.64-.15.9.12.6-.02.32.06.25.4 1.74-.34.5-.02.3.05.4.3.43-.28.4.04.4-.27.6-.8.27-.5.44-1.05.33-.37.36-.2.42-.05.65-.2 1.41-.88.55-.18.29-.17.97-.69.6-.13 1.8.18.85-.05.65-.1 1-.37 1.08-.27 1.33-.59 1.1-.6.68-.14 1.06-.1 1.56-.16 1.82.08.46-.12.22-.11.32-.12.4.08.3.1.9.47 1.38 1.01.3.05.9-.23.3.02 1.27.74.53.02.42-.02.31.08.34.2.4.47.84.44.05.37-.07.23-.18.01-.17.05.2.76.36.61.85.09.31.21.2.25.16.38.11.6.43.51.4.43.1.18.18.6.07.19.16.6.22.69-.06.07-.14-.02-.24-.17-.2-.2-.12.03-.13.14-.02.16.2-.04.1.02.26.21.24.25.2.14.46.61.18-.14.22-.12.36.34.14.06.08-.13-.14-.6-.13-.14-.03-.21.16-.15.08-.19.4-.44.86-1.33.27-.16.3-.29.41-.22.43-.27.27-.1.27-.06.3-.24.32-.66.25-.79.26-.34.4-.37.3-.5-.01-.4v-.41l.22.3.14.33.23 1.06-.2.24-.2.11.04.38.14.49.05.39-.42.41-.36.52-.44 1.01-.03.3-.06.43.02.37.07.37-.1.56-.18.5-.23.01-.16-.02-.34.05-.32-.03-.38 1.1.23.04.18-.06h.31l.36-.2.52-.16.3.06.35-.02.5-1.4.13-.91.26-.4.08-.3.13-.26.27.46.22.45.48.72.15.36.06.88-.31 1.02-.2.3-.22.25-.19.43.57.11.38-.01.57-.31.11-.04h.3l.1-.17.29-.16.2-.18.28-.14.25.09.06.08.06.1-.1.2v.42l-.16-.04-.15-.26-.18.07-.13.19-.27-.07.05.13.14.24.57.48.61.62.23.3.5.94.36 1-.03.3-.18.53-.12.55.01.28.12.36.25.37.94 1.01.49.9.66.46 1.07.17.56.34.58.67.2.06.28.02.36-.4.56.04.73.4.43-.09.31.05.44.23.64.46.67.22.4.35.31.06.56.22.41-.2.35-.23.8-.84.64-.4.33-.16.27-.06.34-.27-.21-.18-.2.03-.34-.1.19-.13.2-.1.98-.61.26.18.18.2.2.29-.15.4-.13.19-.3.3-.37.01-.17-.02.36.34.31.23.65-.42.15-.32.12-.2.21-.03.3.06.13.24.06.29-.22.08-.1.21-.08.2.38.27.2.17h.23l.28.04.2.38.2.45.23-.12.14-.12.25.11.27.35.22.4.02.17.17.08.15-.12.08-.17v-.31l-.05-.49-.1-.07-.26.26-.14-.19-.2-.2v-.2l.22-.1.17.04h.23l1.17-.17 1.5-1.57.65-.57.68-.43.7-.27.38-.09 1.9-.15.97.05.51-.1.24-.15.4-.4.27-.24.35-.06.08-.3v-.31l.06-.33-.1-.62.03-.82.07-.42.21-.6.1-.6.09-.87.08-.51.1-.48.27-.51.23-.34.54-1.25.18-.13h.16l.07-.07.02-.07-.05-.05-.07-.15.05-.12.16-.11.05.04.09-.02.01-.06-.08-.35.12-.48.13-.84.16-.38.1-.3.35-.45.4-.44-.12-.05-.18-.03.12-.1.1-.04.11.07.1-.2.02-.3.1-.45-.09-.4.19-.12.2-.07.1-.41.05-.17.13-.15.22-.33.17-.34.4-.65.39-.27.58-.2.07-.12-.15-.08v-.07h.23l.09-.23.23-.16.38-.4.14-.35.07-.28.04-.65.63-.84.44-1.15.1-.73.12-.4.07-.57-.07-.6.02-.5.44-1.29.1-.52.14-.34.2-1.27.01-.65.32-.76.4-.62.02-.57-.13-.44v-.94zm-65.17-48.5l.52-.14.51.18.29-.06-.01-.11-.06-.1-.1-.1-.24-.07-.07-.25-.13-.23-.03-.25-.1-.23h-.13l-.12.06-.27.33.1.18.02.33-.16.1-.18-.04-.08.3.09.11h.15zm-47.26 41.4v-.21l-.1-.21-.32-.9-.1.03-.1.12.15.65.54.96.07-.13-.1-.24-.04-.07zm6.27-15.33l.16-.23.03-.2-.06-.15-.22.23-.13.19.02.11.2.05zm25.4-15.84l.1.03.1-.08.03-.13-.12-.13-.04-.12h-.08l-.05.06-.06.14.12.12v.11zm1.88-2.4l-.02-.08.01-.22-.1-.06-.12.1-.07.3.12.14.18-.18zm61.59 91.52l-.08.13-.02.12-.06.06.11.08.03.2.07.02h.17l-.1-.47-.13-.14zm-.12.76H880l-.13.2-.04.15-.07.02-.03.11-.07.09-.16-.07v.07l.14.26.22-.06.21.07.13-.4-.03-.2-.09-.24zm2.31-2.51l-.2-.09-.13.18.02.09v.19l.05.02.15-.04v-.1l.18-.11-.07-.14zm-28.4-24.64l-.25.12-.67-.08v-.06l.11-.22-.14-.13-.15-.05-.55-.04-.67.24-1.26.29-.17.2-.1.28.14.16.46.33.43.04.32-.07.34.05.17-.2.48.14.18.19.4-.17.09-.3.14-.14.45-.1.5.13.14-.02.16-.17-.21-.33-.33-.1zm17.22 14.21l-.08-.52-.26-.21-.14.01-.03.27-.16.15-.05.14v.3l-.06.3.13.28-.03.3.07.2.08-.02.3-.14.2-.2.09-.25-.1-.28.04-.33zm-57.06-85.44v-.02h-.07v.02h.07z"
		},
		"BN": {
			"pts":{},
			"map":"M790.33 445.26l-.23.12-.22.15-.23.13-.1.1.03.15.06.31.03.25.07.1.07.1-.03.1-.13.2.08.05-.1.27-.15.2-.2.16-.12.04-.1-.07-.17-.18-.18-.25-.09-.15-.26-.02-.09-.11v-.14l-.08-.17-.1-.18-.15-.13-.21-.1-.09-.08h.32l.34-.04.35-.15.33-.18.28-.2.27-.23.27-.18.43-.21.15.01v.15l-.05.18zm0 0h.31l.08.1.17.32.1.32.04.49.13.2-.02.05-.08.04-.12.01-.21-.05-.18-.07-.15-.53-.07-.3v-.58z"
		},
		"CC": {
			"pts":{},
			"map":"M739.77 492.7l.03.02.05-.01.01.02-.06.02-.04-.05-.02-.08v-.07h.01v.05l.02.05v.06zm.22.04l-.04.02-.02-.02h-.01v-.02h.03l.02-.02.02-.02v-.03l.02.03v.03l-.02.03z"
		},
		"CK": {
			"pts":{},
			"map":"M26.48 518.9h-.08l-.12-.03h-.07v-.03l.02-.09.06-.04h.12l.08.07V518.9z"
		},
		"CX": {
			"pts":{},
			"map":"M764.47 487.95l-.08.2-.14-.11-.17-.04.03-.14.14-.02.07-.01.1-.05.05.17z"
		},
		"FJ": {
			"pts":{},
			"map":"M962.95 493.62l-.1.03-.18-.02-.04-.05h.06l.11-.04.15.02.02.03-.02.03zm8.12 10.4l-.12.05v-.04l.09-.08h.06l-.03.06zm.08 1.01l-.2.1V505l.16-.14.11-.03-.06.14-.01.07zm2.7 2.22l-.07.1-.06-.03.08-.17.01-.07-.12-.09v-.06l.03-.04.14.1.09.08.02.04-.03.08-.09.06zm1.96 1.98l-.15.02-.14-.12.09-.13.12.03.07.13.01.06zm-2.04.06l-.08.05-.07-.01-.07-.05-.04-.08.1-.07.13.08.02.09zm.62.75l-.03.06-.14-.1-.06-.05.16-.05.07.02v.12zm-2.88 2.06v.09h-.04l-.05-.05-.02.03-.02.02v.06l-.01.04-.04-.02v-.1l.02-.06.07-.06.09.05zm3.51.66l-.02.03-.08-.03-.06-.04-.01-.04.02-.06.06-.03.03.02-.02.01-.03.02v.06l.05.03.05.01.01.02zm-.49 4.42h.01-.04l-.02-.03v-.04h.02l.01.02.02.02v.03zm-3.58-13.11l-.42.38-.15.2-.13.22-.35.23-.16.32.02.32.35-.34.4-.27.12-.06h.13l-.01.1-.06.1-.04.24.1.22-.3-.02-.3.02-.35.12-.34.06h-.13l-.12-.04-.08-.07-.06-.14-.07-.02h-.27l-.4.3-.14.24-.16.02-.19-.06-.22.2-.27.06-.12-.16-.07-.2-.1-.14-.3-.04.05-.18.08-.07.07-.1.04-.13.15.08.14.05.16-.1h.17l.17-.26.27-.17.36-.13.37-.1.19-.02.18-.05.33-.25.2-.12.24-.08.22-.05.2.04.17-.02.42-.17v.04h.01zm0 1.07h-.03l-.01-.06.04-.1v.16zm.39.43l-.1.03-.29.24-.19.27-.1.25.09.1.2-.1.07-.11.3-.22.13-.24-.11-.23zm-8.08 1.32l-.14.05.07-.23.09-.07.05-.02.08-.01-.03.15-.12.13zm6.09.64l-.1.07-.04-.4.1.01.06.04.04.1-.06.18zm-3.18.01v.13l.08.06h.08l.2.25.32.21.19.16v.14l-.05.15.08.26.04.27.14.43-.2.08-.3.02-.08.07-.1-.04-.26.03-.24.15-.23.18h-.27l-.3.04-.31-.02-.2-.11-.38-.1-.5-.1-.2-.09-.18-.12-.16-.32-.02-.15.02-.15.15-.05.12-.08.02-.1.05-.07.07-.02.04-.05-.05-.15-.02-.15.3-.27.3-.23.56-.2.34.01.52-.16.17-.08.17.05.1.12zm1.53 1.03l-.15.06-.08-.18.11-.18.12-.01.06.18-.06.13zm1.44 1.1l-.02.01-.24-.23.01-.09.04-.08.1-.08.09.13.06.22-.04.11zm-2.39 2.53v.13l-.36.08-.12-.1-.07-.02-.22.18-.06.08-.02.05-.06.03-.39.1-.17-.1.11-.06.15-.12.14.02.15-.1.14-.18.2-.04.15-.06.24.04.19.07zm-10.73 8.02l-.02.03h-.08l-.02-.07.05-.04.06.02.01.06z"
		},
		"FM": {
			"pts":{},
			"map":"M854.6 432.45l-.22.23-.01-.07.06-.14.1-.15.08-.1.1-.02.08.13-.09.1-.1.02zm38.18 5.78l-.05.01-.02-.01.01-.07.02-.03h.05l.08.02v.02l-.09.06zm-.65.23l-.02.04-.17-.01-.02-.02.01-.02.08-.02.02-.05-.04-.01.03-.03h.07l.03.03.02.04v.05zm18.54 1.49l-.16.06-.2-.03-.07-.22-.1-.07.03-.1.15-.1.3.08.1.16-.06.1v.12zm12.98 4.13l.02.14-.17-.07-.03-.05.1-.05.08.03z"
		},
		"GU": {
			"pts":{},
			"map":"M872.93 421.86h-.11l-.1-.09-.04-.06v-.33l.4-.28.12-.27.1.02.1.05.1.08-.46.45-.1.43z"
		},
		"ID": {
			"pts":{},
			"map":"M812.35 489.12h-.26l-.08-.03-.02-.25.07-.14.6-.17.24-.17.33-.34.2-.1.06-.03h.04l.03.27.08.15.02.09-.3.13-.27.3-.58.2-.16.09zm-2.96-.9l-.14.04-.3-.08-.06-.05.25-.14.2-.2h.23l.14.03-.05.23-.27.17zm4.26-.8l-.25.1v-.21l.19-.26.18-.1.1.11v.05l-.25.1.03.2zm-9.46-2.6l.12.12.46.24.07.1.03.17.1.13.2.02.22-.02.16.08.15.12.21.25.2.27.22.15.14.22-.08.2-.3.27-.15.07-.23.02-.34.16-.12-.08-.39-.06-.3-.12-.27-.22-.14-.23-.2-.2-.32-.15-.59-.4-.36-.04-.15.03h-.15l-.77-.18-.12-.1-.09-.14-.09-.13-.05-.15.1-.14.1-.08.43-.16.31-.05h.35l.53-.04.5.08.16-.06.25-.16.1.05.1.15zm13.69-.9l.1.02.36-.16.06.03.07.07v.23l-.14.19-.34.02-.05.05v.11l.02.11.08.09.1.16.1.36-.2.15-.1.28-.33.26-.37.44-.3.22-.26.26-.22.18-.28.06-.42.04-.57.31-.32.14h-.3l-.3-.1-.1-.11.03-.15.1-.14.1-.1.08-.15-.32-.17-.03-.14.13-.36.08-.37.12-.26.47-.45.28-.22.16-.1.05.1.1.12.07.02.05-.03.41.04.1-.04.16-.18.1-.1.08-.21.02-.13.36-.1.2-.11.17-.15.5-.27.1-.07-.03.25.07.06zm-25.93-.8l-.08.1-.22-.17-.06-.08.17-.1.05-.03.15.12v.16zm20.48-.63l-.09.17-.16-.05.05-.16.08-.09.22-.14.21-.02.14.05.04.05-.34.05-.15.14zm-9.76.55l-.11.03-.1-.04.04-.25-.07-.17.12-.13.02-.24.05-.07.06.07.04.05.05.02h.13l.02.11v.1l-.05.1-.15.1-.1.13.05.2zm10.7-1.08l-.05.12h-.76l.02-.16.21-.18.07-.06.23-.06.33.1-.04.24zm-18.55.73l-.36.57.13.1.07.09-.58.12-.24-.07-.14.02-.6-.1-.42-.14-.05-.1.03-.13.13.04.32.03.13-.06v-.37l-.04-.49.44-.4.23-.16.27-.1.68.23.12.06.08.1.05.13-.25.63zm21.25-.8l-.17.18-.11.3-.1.09-.23.05-.14-.3-.25.02.12-.27.12-.1h.15l.07.1.04.03.36-.45h.07l.07.01.05.06-.05.28zm-1-.16l-.4.08-.24.35h-.19l-.1.14-.02.07.01.06-.02.06-.07.07-.18-.1-.15.12-.07.03-.22-.14-.22.01-.06-.02.27-.26.35-.24.07-.08-.15-.03-.08-.03-.01-.06.23-.04h.15l.12.07h.08l.49-.28.19.06.14.07.08.1zm41.61.33l-.14.03-.7-.08-.07-.12-.01-.06.16-.1.15-.2.24-.07h.1l.28.46v.14zm-59.32-.06h-.06l-.12-.06.04-.11-.06-.2.02-.14.15-.1h.33l.02.11-.32.5zm4.22-.36h-.12l-.02-.1.04-.13.11-.05h.06l.09.1.01.06-.07.07-.1.05zm15.3-.27l.06.16.22-.09.2-.02.48.02.36.03.2.07.02.34-.1.08-1.8.25-.19-.08-.06-.08.19-.25-.09-.12.1-.2.22-.13.18.02zm9.02-.12l.49.11.28-.01.06.1-.27.23-.57-.18-.1-.2.11-.05zm-14.01 1.43l-.4.1-.24.1-.23.12-.14.03h-.27l-.38-.02-.25.04-.72.32-.27.03-.24.08-.09-.12-.1-.1-.23-.02h-.24l-.24.3-.38-.07-.15.02-.15.06-.14.03-.14-.02-.56-.22-.64-.14-.65.06-.55-.12-.3.09-.29.13-.08-.14-.1-.12-.1-.19v-.2l.03-.15.08-.14.05-.14.03-.15.11.07.13-.02.38-.16.37-.24.34-.1.2-.02.16.05.17-.02.18-.06.27.2.12.03.38.02.34.1.3.17.44.14.27.21.2.08.15.02.14-.03.17-.14.2-.06h.18l.32-.03.14-.03.15-.07.15.04.13.07.54.36h.17l.3-.07.1-.1.05-.14.09-.12.11-.11.14-.08.4-.14.28-.14.19-.23-.45-.1.1-.16.14-.1.2.04.17.13.08.49-.14.07-.1.07-.05.1-.26.18.1.23-.07.1-.1.05zm22.46-.82l-.24.09.16-.22.52-.5.19.1h.25l-.37.24-.38.1-.13.2zm-35.08 0l.14.1h.13l.26-.17.16-.06h.17l.17.02.16.12.06.2.07.05.1-.22.12-.07.14-.04.23.01.17.12.16.33-.01.29.06.1.1.08.08.11-.07.12-.07.06-.2.05-.1-.02-.09-.08-.1-.03-.22.03-.22.06.03.1.17.06.06.05-.01.06-.07.02-.22-.1-.15.03-.55.12h-.14l-.08-.12v-.3l-.06-.08-.4.36-.12.1-.16.04-.17-.02-.58.23-.19-.03h-.18l-.62.24-.33.07h-.18l-.17-.01-.15.02-.14.1-.27.08-.29-.06-.24-.09-.23-.1-.06-.15.02-.17.1-.23-.07-.4.05-.2.1-.18.14-.07.19-.01.3-.17.29-.21.16.02.37.15.22.02.37-.02.14.09.07.21.08.08.1.05.27.36.24-.02.22.06.37-.21h.28l.08-.17-.17-.18-.2-.14-.11-.03-.12.01-.1-.02-.46-.33-.14-.17-.07-.21.04-.16.32-.13.14-.03.55.1.09.07.15.32.09.14zm-7.77-.45l.28.14.4.44.03.12-.12.11-.28.19-.63.28-.1.14-.14.26-.02.11-.05.06-.07.05-.14.04-.15-.06.14-.17v-.2l-.1-.19-.14-.15-.28-.22-.31-.19-.31-.1-.33-.04-.12-.1-.19-.23-.06-.12-.03-.14.02-.13h.08l.32.02.6.15.29.02.16-.04.44-.3h.1l.42.14.29.1zm40-.56l-.16.25-.19-.01-.33-.35.02-.24.02-.08.13-.02.44.07.09.2-.01.18zm-8.44-.8l.04.13v.06l-.34.05-.32.15-.17.17-.13.23-.44-.1-.4-.01-.17-.08h-.18l-.25.07-.35.2h-.08l.03-.28.1-.18.37-.43.3.1.36.02.4-.08.29-.2.4-.1.33.26.21.02zm1.72-.13l-.18.07.06-.2-.02-.18.3.05v.14l-.04.05-.12.07zm30.9 1.81l-.66.37-.87-.06h-.31l-.52.08-.1-.07.1-.34.4-.92.5-.82.2-.2.29-.2.3-.16.7-.17.62.03.1.07.26.27.18.21.07.3-.27.53-.3.49-.48.39-.2.2zm-20.04-.76l-.05.03-.34-.03h-.2l.03-.22-.1-.15.13-.24v-.27l.15-.03.02-.16.18-.4.1-.1.15-.03.17-.24.1-.06.1-.19.14-.08v-.15l.07-.08.23-.06.16.07.1.16-.26.19.14.48-.2.52-.11.16-.23.13-.07.13-.27.26-.08.22-.01.1-.05.04zm1.82-2.22l-.03.14-.12-.07-.11-.16-.17-.03-.13-.04-.07-.07.47-.04.16.27zm-48.84-.2l-.04.12-.14-.03-.14-.18.07-.05.07-.02.1.02.08.15zm39.63.15l-.12.07-.2-.15-.06-.06.13-.14.14-.05.09.07.04.06-.02.07v.13zm-21.94-.18l-.28.01-.1-.02-.01-.27.31.11.1.01-.02.16zm-19.27-.04l-.05.04-.48-.02-.3.23-.21.06h-.76l-.09-.03h-.07l-.04.05-.24-.03-.77-.2-.1-.2.12-.19.28-.28.55-.06 2.52-.02.27.24.03.09-.55.16-.1.16zm4.26-.37l-.22.04-.21-.1v-.13l.05-.12.32-.06h.17l.18.08.12.1.06.1h-.34l-.13.09zm53.65-.62l-.05.04-.07-.09v-.06l.09-.15.1-.09h.1l-.03.12-.14.23zm-81.8-.3l-.17.06-.13-.06-.06-.07.2-.2.09-.04.1-.02.05.1-.07.23zm81.91-.26l-.15.03-.07-.23.12-.06.14.14-.04.12zm.3-.32l-.08.02v-.13l.08-.12.08-.07h.1l-.19.3zm-.8.02l-.04.2-.05.22-.25.24-.16.38-.1.1-.33.16-.3-.2-.1-.18.14-.83.13.02h.09l.02-.06-.2-.1-.03-.47.01-.18.15-.04.18.14.24.25.26.2.35.15zm-75.5-1.2l.27.31.25.18.29.09h.3l.3.05.35.12.36.05.16-.02.16-.06h.11l.1.06.25.26.27.25.06.12.19.6.2.17.29.05h.33l.33.02.77.14.3-.02.27-.14.24.1.65.16.32.04.36-.05h.37l.17.04.17.07.14.03h.15l.27-.14.17-.26.14-.32.11-.34.08-.14.1-.13.13-.08.14-.05.38.03.08.08.43.57.08.05.44.03.12-.02.28-.11.15-.01.29.14.12.12.14.09.7.1.27.23.14.03.49-.02.34.02.29.06.13.35.11.35.06.12.29.12.12.11-.03.36.03.33.6.3.66.16.7.02.68-.06.36-.07.45-.13h.1l.86.4.07.05.1.29v.3l-.17.73v.4l.18.43.1.12.3.23.02.12-.04.12-.35-.09-.21-.1-.12-.16-.17-.09-.33.03-.61-.16-.69-.25-1.22-.53h-.34l-.31.07-.34.13-.35.1-.26.04-.26-.03-.65-.13-.65-.08-1.69-.05-.47-.12-.8-.06-.62-.1-.62-.15-1.58-.73-.52-.18-1.59-.34-.24-.03-.58.02-.36-.1h-.32l-.47.11-.15.08-.18.17-.33-.01-.31-.03-.85-.17-.31-.1-.3-.14-.27-.2-.15-.06-.73-.2-.59-.06-1.22-.1-.27-.05-.23-.07-.12-.16.02-.2.09-.18.11-.17.08-.17-.89-.35-.7-.2-.31-.03h-.3l-.35.04-.35-.02-.16-.06-.16-.02-.16.04-.14-.01-.03-.16.09-.14.17-.15.1-.03.04.24.05.05.15.05.07-.01.27-.31.08-.15.13-.41.14.08.14-.05.09-.07.22-.94.2-.27.25-.23.13-.06.25.14.51.06.31.09.3.01.3.05.42.16.15-.02.15-.05.22-.18.1-.29.32.15.47.06.11.09zm46.36-.1l-.02.14-.1-.15-.1-.08v-.16l.14.06.08.2zm-9.8.9l-.11.47-.05-.16-.02-.43-.07-.2.04-.24-.01-.6.08-.28.16.35.04.19-.06.9zm-21.7-1.35l-.06.1h-.28l-.04-.12.18-.2.11-.01.1.07-.02.16zm55.84.11l-.17.27-.12-.1h-.06l-.04-.15.04-.33-.15-.36h.2l.05.11.06.04.18.35v.17zm5.39-.4l-.02.1v.2l.04.19-.12.19.12.28.02.13-.01.2-.03.09-.09.26-.08.09-.06.02-.07.08-.54-.08-.24-.18-.21-.2-.05-.07-.24-.23-.06-.08v-.12l.2-.03h.2v-.1l.12-.38-.32-.25-.06-.1.11-.07.27.08.31-.43.1-.09.05-.24.18-.03.12.03.09.15.03.13-.04.12.16.06.12.28zm-5.06.55l-.23.23.22-.56.04-.28.2-.17.3-.87.05.02.1.09-.14.63-.42.45-.12.45zm-84.96-1.18l-.22.02-.42-.35-.07-.1.12-.1h.13l.47.22.1.1-.1.2zm59.1-.57v.28l-.12-.02-.09-.1-.02-.1v-.07l.05-.06.19.06zm-4.4.46l-.18.07-.33-.31-.14-.27.03-.14.1-.13.05-.03-.02-.14.13-.06h.15l.1.19.1.05.06.17-.05.6zm1.68-.47l-.07.19-.16.14h-.12l-.13-.01-.23-.13-.05.13h-.18l-.07-.18.13-.5.19-.19-.02-.2-.15-.42.1-.22.43-.17.37-.2.12-.04.1.15.06.72-.4.57.08.36zm1.48-2l.07.6-.02.16-.16-.23-.06-.04-.04.04-.06.03h-.08l-.1.22-.01.22-.08.15-.04.48.02.13.12-.06.08-.02.27.19.15.13-.04.17-.19.17-.22.07-.16-.07-.05.03-.1.09-.06.1.02.13-.19.33-.1.09-.22-.1-.14.08h-.1l-.17-.34v-.15l.15-.17v-.13l.08-.14.17-.19.1-.14v-.1l.08-.34.02-.15.05-.15.08-.31.01-.6.26-.48.26-.13.1-.02-.02.12.32.34zm28.89-.84l.15.15-.33-.12-.48-.24-.03-.16.4.25.29.12zm-28.71-.36l-.27.33-.2-.02-.22-.22-.06-.24-.01-.08.15-.14.52.05.1.11-.01.2zm14.79-1.47l-.48.15.1-.27.07-.07.23.07.08.13zm-.8.25l-.07.1-.16.07h-.14l.05-.1-.04-.07-.1.03-.16.08-.2.15-.13-.07-.02-.13v-.05l.25-.22.29-.04.4-.2h.18l-.04.14-.07.1-.03.1-.01.11zm1.24-.35v.11l-.02.04-.15-.04h-.11l-.1-.2.03-.06.2.07.07.02.08.06zm-34.19-.23l-.1.48-.17-.27.19-.32.09-.07v.18zm31.09-.41l.06.12-.27-.08-.12-.12.12-.07.07-.02.14.17zm-31.42 1.53l-.59.52-.1-.14.06-.52-.17-.33.02-.24.11-.42.15-.33.34-.22.08-.03-.02.4.07.15.02.13-.03.1.06.51.04.13-.09.16.05.13zm29.35-2.16l.46.21.1.15.08.16.09.1.1.07.19.15.04.22-.04.45-.2.04-.2.06-.4.26-.2.05-.2.02-.15.07-.15.02-.39-.14-.38-.17-.54-.3-.1-.06-.1-.16-.25-.28-.06-.18-.02-.51.06-.12.1-.06.37.11.25-.12.68-.1.7.01.16.05zm3.13-.42l-.14.23-.25-.01-.04-.03.3-.15.13-.04zm-58.66.19l-.05.06-.15-.03-.11-.08-.07-.07-.02-.08.15-.1.32.1-.07.2zm1.63-.3l-.11.08-.06-.07-.02-.07.04-.1.16-.01.07.03-.08.15zm61.94-.08l.64.3.33.05.56-.04.2.03.54.39.15.27.05.23.08.22.13.06.15.02.2.31.04.1-.15.8-.62-.3-.6-.34-.27-.13-.7-.29-.1-.1-.08-.13-.3-.18-.6-.02h-.23l-.1.03.03.1v.19l-.15.05-.38-.12-.33-.04-.3-.12-.38-.07-.04-.06.03-.1-.02-.08-.09-.03-.17.02-.17.08-.15.1-.2.26-.1.1-.34.05-.15-.02-.13-.07-.39-.48-.13-.1-.15-.09-.13-.04-.14.07-.07.15-.03.19-.04.1-.17.29-.14.17-.05-.03.07-.27v-.16l-.09-.16-.05-.16.65-.8.24-.19 1.03-.06.61.03.33-.02.23-.06.19.03.04.16.12.11h.16l.3-.13.25-.19.15-.08.16-.02.16.02.16.04.45.16zm-81.53.87l.1.4-.32-.27v-.2l-.04-.12-.2-.15-.16-.2-.07-.46.06-.1h.13l.58.6.04.1-.01.22-.08.07-.03.11zm21.63-.51l-.04.3-.07.1-.23.14-.08.1-.22-.02-.03-.15-.07-.1-.22-.12-.07.02-.04.18-.45.13h-.13l.07-.23-.12-.18v-.23l-.03-.1-.06-.06.12-.16-.02-.17.12-.19.07-.46.47-.1.1.09.56.1.4.27.2.37-.23.47zm-22.25-.71l-.2.22h-.32l-.07-.14.02-.33-.08-.11v-.04l.06-.2.06-.03.53.46v.17zm95-1.7l-.09.03-.03-.11.05-.17.05-.02h.07l.07.07-.13.2zm-96 .6l.01.07-.45-.24-.22-.07-.19-.26.06-.13.01-.18.03-.07.14-.02.18.13.14.31.22.3.07.16zm72.87.3l-.05.05-.17-.15-.11-.42-.1-.11-.1-.4.02-.11.14-.17h.11l.08.1-.04.43.24.55-.02.23zm-6.14-1.37l.05.11h-.17l-.07-.21.02-.11.17.2zm6.05-.46l.85.1-.11.1-.93.15-.33-.02-1 .09h-.13l-.02-.16-.1-.1.16-.1.21-.02.56.03.84-.07zm-7.98.07l-.2.23-.03-.12.04-.1.06-.08.09-.04.04.12zm20.02-.34l.03.16.17.15-.06.24-.07.03.04.1.07.09-.13.06-.1-.03-.15.08-.1.1-.32.05-.1-.1-.58-.12-.37-.25-.04-.08.7-.3.32-.07h.26l.33-.1.1-.01zm-14.97.04l.26.1h.1l.08-.12.05-.02.12.06.03.19.17-.03.13.07.04.04-.02.19-.5.03-.36.15-.48-.13-.54.23-.33.08h-.28l-.25-.41.15-.48.1-.08.18-.04.5-.02.85.19zm29.2-.32l1.1.14.3-.01.63.05.52.19.91.03.27.06.22.12-.52.1-.24.1-.45.06-.37-.06-.27.07-.1-.1-.4-.1-.51-.2-1.05-.23-.05-.14.01-.08zm-73.73.08l-.31.12-.1-.26.2-.08.22.07v.15zm-8.08.14l.1.19.13.17.1.19.13.88.44.77 1.26.3-.21.12-.1.11-.08.13-.19.53.02.11.11.18.02.2h-.15l-.18-.05-.14-.07-.13-.1-.15-.07-.15-.05-.26-.15-.35-.11-.35-.08-.17-.23-.08-.28.08-.4-.08-.13-.13-.1-.15-.3-.06-.35-.23-.13-.3-.08-.12-.07-.59.13-.14-.03-.12-.1-.32-.1.01-.2.15-.15.35-.15.16-.13.03-.17-.06-.13.03-.13.1-.13.13-.1.36-.13.15.22.07.2.1.14.15-.2-.1-.35.27-.07h.26l.2.09.12.15.06.2zm48.8.1l-.2.02-.12-.09v-.4l.12-.09.06.02.03.12.07.1.1.1-.07.21zm12.66-.13l-.17.12-.09.03-.4-.08-.49.02-.5.1-.28-.09-.19-.14.01-.15.18-.38.37-.28.15-.05.27.07.45.22.35.26.33.2v.15zm-13.74-1.35l.07.18-.1.15.1.27.28-.37.27-.05.15.06.1.08.07.14-.1.3-.18.15-.23.02-.1-.18-.15-.01-.1.38-.05.06-.14.05-.11-.1-.02-.06.16-.18-.09-.52-.12.1-.34.47-.26.21-.1-.1-.12-.32.06-.41.2-.28.19.02.52-.09.14.03zm-37.53.03l-.56.28-.13-.02-.1-.1.07-.54.07-.16.38-.02.24.07.12.1.05.18-.03.1-.11.1zm70.2-.18l-.13.05-.15-.05-.15-.22.06-.16.17-.11.14.11.05.14.1.01-.08.23zm-99.52 1.83l-.26.01-.55-.33-.13-.14-.03-.2-.52-.77-.07-.17.2-.63.54-.15.18.1.06.28.3.51.11.28.08.12.03.1-.03.06.23.32.15.2.02.3-.31.1zm88.5-1.28l-.1.08-.33-.07-.17-.17-.12-.23-.08-.2-.02-.14-.1-.18.01-.07.63-.2.12.08h.26l.1.15-.07.6-.12.35zm-.26-1.48l-.07.14-.13.1-1.2.16.1-.1.06-.1.08-.05.11.01.06-.03.06-.01.07.01.12-.04.24.03.25-.02-.02-.14.27.04zm12.45-.35l.59.1h.22l.2.12.27-.06.14.04.49.42.24.27.35.24.26.08-.2.22-.38.11-.16.01-.3-.13-.24.02-.21-.16-.04-.25-.21-.57-.29.17-.34-.26-.09-.01-.02.04-.14-.09-.13-.17-.01-.14zm-22.47.35l-.03.06-.3-.07-.07-.04.15-.4.13.02.12.37v.06zm9.25-.7l-.16.01-.3-.12.18-.1.1-.02.1-.07h.05l.1.06.09.09-.16.16zm-24.36-.33l.11.13-.07.14-.1-.04h-.25l-.1.02-.1.08h-.08l.05-.13.22-.2.13.03.19-.03zm32.27.88l.7.05.35-.03.34.03.15.07.23.22-.06.14-.04.29.12.27.2.28.16.3.03.14-.06.31-.06.15-.2.26-.1.27.07.34.03.35v.31l.03.31.11.32.47.86.27.58.08-.33-.02-.36.1-.13.14-.07.17.07.04.15.02.32.15.63.18.03.2-.1.04.2v.35l.09.28.08.11.34.23.15.04.44.06.33.02.32-.08.21-.21.19-.23.64-.53.19-.25.18-.39.06-.08.64-.42.08-.15.09-.28.14-.28.1-.14.62-.14.64-.07.64-.26.27-.22.02-.14-.14-.26v-.11l.14-.1.56-.33.66-.33.53-.23h.29l.27.2.28.17 1.5.48.24.15.2.2.31.14.34.07.3.13.29.17.64.3.85.38.22.03.8-.03.14.08.13.1.12.02.91.07.14.07.14.1.07.28h.63V476.37l-.09.3-.19.43-.03.36.16.28.15.18V484.08l-.14-.1-.39-.3-.35-.36-.22-.33-.25-.3-1.08-.9-.28-.3-.05-.07.02-.08.13-.15.22-.45-.23.28-.27.22-.4.01-.4.06-.36.13-.37.05-.18-.07-.12-.16-.06-.17-.02-.18-.16.29-.3.16-.42.33-.11-.07-.08-.13-.02-.13.08-.14.06-.15.08-.36.19-.2.12-.41.08-.15.03-.14-.1-.17-.19-.05-.12-.1-.15-.28-.09-.1-.17-.1-.12-.14.14-.1.19-.04h.15l.27.07h.12l.32-.1-.18.03h-.18l-.56-.18-.36-.19-.33-.37v-.07l.23-.07.5-.08-.15-.18-.23-.17-.08-.3-.15-.17-.34-.3-.22-.3-.2-.63-.2-.47.05-.17.17-.13-.26-.01-.23-.1.13-.22.26-.14-.24.04-.23.06-.11.02-.11-.02-.06-.1-.01-.13.03-.23-.04-.22-.21-.1-.18-.17-.1-.06h-.12l-.13-.1-.1-.15-1.26-.67-.08-.2-.11.1-.12.03-.14-.1-.15-.08-.16.01-.16-.06-.16-.03h-.16l-.67-.21-.62-.33-.51-.14-.31-.18-.33-.15-.73-.15-.74-.1h-.27l-.23.03h-.21l-1.23-.71-.2-.32.01-.2.06-.15.5-.04-.36-.05-.14.02-.29.13-.16.01-.22-.08-.2-.11-.36.1-.18-.16-.06-.17-.1-.08h-.13l-.17.07-.18-.01-.11-.12-.08-.15-.12-.1-.15-.1-.23-.2-.13-.26.02-.47.04-.17.23-.28.17-.26-.2-.03-.2.12-.08.13-.02.14-.03.5-.14.14h-.23l.06.28-.09.27-.26.33-.02.14.04.16-.06.15-.42.46-.15.02h-.31l-.32.07-.15-.1-.13-.15-.09-.16-.13-.33-.1-.35.32-.42-.1-.38-.23-.33-.55-.45-.57-.44-.26-.08-.43-.04-.13-.04-.13-.16-.1-.19.26-.08.46-.22.26.01.7.12.21.1.2.07.48-.36.38-.47.24-.1.2-.04.2.04.41.17.32.07.23.02.12.15.13.06.03-.22.12-.26.23-.08.11-.02.08-.06-.02-.24-.3-.03.17-.2.14-.1.05-.1v-.13l-.58.24-.62.1-.36-.03h-.37l-.73.16h-.27l-.65-.07-.35-.08-.27.06h-.27l-.28-.18-.24-.23-.11-.16-.16-.12-.07-.16-.17-.6-.02-.43h-.28l-.27-.05-1.22-.4-.14.1-.17.05-.18.02-.17-.02-.17-.07.02-.11.13-.27.12-.1.17-.09.1-.14.18-.44.02-.15-.02-.15.01-.12.11-.06.46-.14.95-.22.24-.13.2-.2.23-.13.1-.13.13-.1.74-.27.31-.02.33.03.64.16.61.26.53.35.58.26zm-80.62-1.08l.26.27.07.1-.13.15-.1.2-.07.05-.2-.08-.14.2-.09-.32-.2-.21.12-.22.05-.01h.06l.07.06.3-.19zm64.2-.04l.32.41-.21.4.14.21.4.02.1.08.07.1.05.14-.1.1-.23.1-.27-.14-.06-.13-.06-.05-.35.1h-.1l-.07-.17.09-.28-.24-.11-.23-.28v-.1l.08-.2-.01-.15.13-.01.23.2.1-.19.1-.08.12.03zm-.88.49l-.18.07h-.18l-.05-.3.07-.37.17-.07.28.08-.1.1.07.2-.08.29zm-65.37-.41l-.36.1-.4-.07.05-.17.19-.19.17.01.32.13.1.11-.07.08zm75.27-.95l.48.12.11-.02.7.3.11.15-.04.1.1.14-.22.2-.11.03-.11-.08-.23-.04-.25.08-.17-.06-.14-.19-.24-.12-.35-.4-.17.02.04.16.15.1.2.31.1.03.12-.01.15.13v.2l-.41.07-.14-.15-.03-.26-.23.09-.09.1h-.06l-.15-.27-.44-.01-.29-.15.15-.15.02-.14.19-.08.18.07.2-.1.13.02.1-.07.38-.04.26-.08zm-89.94 1.45l-.16.13-.26-.12.09-.18.04-.25.15-.19.05-.23-.3-.62.16-.02.1.07.2.4.16.26-.06.34-.17.41zm17.57-.97l.08.04.1-.14.19.19.1.1.16.1h-.15l-.06.1-.04.01-.59-.31-.38.1-.25-.1-.08-.05.14-.18.13-.4.26.1.06.13-.02.03.18.08.17.2zm68.86.03h-.12l-.1-.16-.28-.18-.17-.3.65.5.02.14zm-5.83-.5v.08l-.1-.12-.05-.03.06-.3.03-.05.05.2.01.21zm-63.28-.19l.02.07-.13-.08-.07-.04-.06-.05-.29-.37.12.02.33.33.08.12zm-3.9-1.33l-.32.02-.09-.04.04-.26.1-.15h.14l.15.23-.03.2zm67.1-.28l-.11.04-.03-.02-.03-.1.06-.2h.12l.05.03v.14l-.07.11zm-.14-.4l-.1.08-.09-.02-.05-.12.02-.08.07-.06.1.04.05.15zm-66.5.34l-.06.04-.24-.35.06-.2.06-.05.13.12.1.13.08.15-.13.16zm1.05-.37l.01.08-.25-.16v-.12l.02-.05.15.12.07.13zm1.14-.1l-.17.09-.22-.26v-.05l.03-.05.04-.03.13.13.16.05.03.12zm-3.37.25l-.05.1-.1-.08-.55-.11-.18-.02-.47-.13-.15-.07-.1-.09.04-.17.06-.1.04-.28.12-.12.23.22.26.18.15.08.46.18.16.1.08.3zm1.1-.83l.02.15-.19-.04-.13-.18.1-.13.08-.04.07.16.05.08zm-.72.49l-.08.07-.14-.02-.15-.09-.19-.17-.21-.15-.27-.09-.18-.03-.06-.03.06-.3.18-.01.59.27.18.15.27.4zm2.4-.86l.17.12.15-.08-.01.1-.03.1-.17.29-.28-.07-.07-.1-.02-.06.04-.04.02-.14h.13l.06-.12zm1.55-.1l.02.2.16.1.04.16-.03.24-.15.29-.06.07-.2-.06-.06-.1-.02-.06.02-.06-.14-.06.09-.11-.06-.15-.4.1h-.12l-.02-.17.02-.07.3-.22.2-.04.2.04.21-.1zm-6 .63l-.13.08-.15-.13-.13-.2-.06-.19-.06-.32-.02-.23.07-.14.06.01.23.14.15.23.08.07.02.22-.06.24v.21zm-13.75-1.32l.6.78.25.1.32.36.08.12-.08.25-.07.7-.15.18-.38-.09v-.12l-.23-.53-.4-.3-.15-.02-.1-.3-.2-.36-.6-.66h.46l.22-.15.05-.13.04-.03.34.2zm13.93.02l.02.35-.2-.1-.16-.13-.26-.1-.32-.04-.23-.1-.16-.16v-.08l.02-.06.05-.04 1.19.31.05.15zm62.27 1.28l-.54.47-.16.23-.14.24-.2.27-.25.24-.12.07-.3.13-.16.05-.32.02-.97.18-.31.03-.32-.01-.6-.05-.12-.02-.24-.25-.27-.2-.24-.01-.24.02-1.75.01-.61.04-.6.08-.34-.04-.33-.1-.24-.03-.25.01-1.15.15-.29-.01-.58-.2-.34-.03-.33.05-.31.17-.11.11-.32.39-.18.28-.14.35-.12.36-.06.29v.3l.05.36.09.34.1.26.4.6.07.08.43.17.26.22.24.6.18.32h.17l.19-.02.33.04.33.08.31-.19.18-.35.18-.26.43-.5.25-.22.15-.08.16.03.14.14.15.1.32.06.33-.04.34-.16.13-.1.1-.12.3-.1h.69l.35.03.64-.04v-.1l-.13-.09-.03-.08.12-.05.41-.11.42-.08.3.06.28.15.1.16.05.2-.1.5-.06.12-.22.07-.2-.07-.2-.26-.3-.1-.4.08-.14.07-.12.1-.23.28-.2.3-.4.48-.49.42-.23.15-.26.1-.83.28-.22.2-.17.27-.19.1-.21.02-.17-.05-.33-.15-.1.12-.02.2.16.06.26.2.2.3.13.06.3.1.12.09.22.25.34.58.12.31.19.26.58.44.03.12-.04.15.05.13.2.25.05.16-.22.21-.01.3-.15.4-.03.13v.12l.1.12.12.09.16.05.13.07.27.32.14.08.08.11v.17l.11.1.11.18.17.04.08-.05.06-.08.13.03.09.13.05.15.01.18v.33l-.07.12H812l-.28-.15v.1l.01.1-.14.03-.16-.02-.4.02-.73.2-.26.13-.16.22-.02.15.07.32-.1.11-.34.05-.47-.1-.28-.08-.16-.07-.2-.22-.08-.27.15-.83.04-.1.07-.1.08-.14.02-.18-.23-.21-.34-.09-.28-.18-1.1-1-.07-.1v-.17l.04-.16.36-.55.05-.1.04-.44v-.35l-.05-.36-.17-.23-.31-.06-.31-.01-.32.07-.3.18-.57.38-.22.22-.02.28.13.28.16.26.1.28.11 1v.1l-.14.3-.06.64.06.91.1.56-.04.3-.27.66-.08.36v.14l.3.69.08.27.03.28-.32-.14h-.15l-.16.05-.34.04h-.36l-.12.06-.25.18-.15.08-.12.01-.45-.23-.26-.24-.24-.28-.05-.3.09-.32.11-.33.25-.57-.02-.37.08-.31.14-.3.05-.27.03-1.08-.03-.1-.33-.64-.03-.1v-.18l.03-.16v-.15l-.07-.12-.13-.1-.16-.04-.34.04-.69.17-.2-.15-.14-.23-.1-.33-.06-.34.02-.32.1-.31-.08-.22-.12-.23v-.12l.07-.11.12-.09.15-.05.14-.1.38-.31.11-.28.01-.34.1-.33.19-.3.22-.28.08-.29-.11-.46.04-.2-.04-.25v-.24l.14-.45.42-.93.4-.5.16-.13.2.23.17.27v-.24l-.05-.23-.16-.57-.14-1.09.04-.1.14.01.15-.1.07-.16-.14-.4-.01-.15.29-.57.23-.2.1-.14.06-.34.13-.14.15-.1.2-.23.11-.3.07-.03h.08l.12.26.14.1.28.09.24-.1.06-.13.09-.12.15-.12.12-.13.13-.32.18-.28.13-.1.14-.07.17-.04h.15l.36.18.2.04.21-.02.13.03.1.08.1.16.1.14.11.07.11.04.77-.06.67.15.91.04.32.1.3.12.36.2.14.06.15-.02.19-.2.14-.04h.15l.6.03 1.57.25.24-.04.95-.47.38-.45.34-.13.12-.2.06-.25.12-.06.3-.07.1-.07.2-.3.24-.27.12-.08.34.05.15.11.19.4-.03.06-.23.19-.05.09-.25.55-.17.27-.21.24zm-64.45-3l.15.23.03.15-.1.17-.05.26-.32.2-.28-.05-.1-.07-.17-.4.01-.33.12-.12.26.02.27-.19.18.14zm72.35 3.4l.2.07.21-.02.1-.12.03-.16.1-.3.25-.2.18-.03.12-.09-.02-.22.01-.22.18-.23.56-.32.32-.12.42-.03.04.12-.05.18.08.27-.03.72-.1.1-.43.25-.47.2-.13.08-.12.2.01.2.39.26.59.24.12.12.08.19.02.22.15.1.2.05.13.1.1.15-1-.34-.26-.14-.31-.02-.32-.05-.31-.13-.34-.03-.17.1-.06.18-.04.2.08.26-.01.15-.06.28.24.82.31.65.46.69.23.23.25.2-.4-.05-.13-.23-.52-.23-.1-.14-.34-.64-.1-.12-.32-.22-.13-.16-.05-.22.03-.23-.02-.32.01-.31.07-.39-.11-.13-.15-.13-.17-.3-.05-.33.02-.2.06-.16.1-.15.02-.15-.24-.2-.26-.6-.02-.31.32-.6v-.29l.06-.17.03-.18.17-.4.28-.33.47-.48.18-.1.2-.07.02.12-.03.1-.35.48-.05.1v.21l.16.12.18.25.03.32.01.35-.04.35-.06.11-.29.35-.64.41-.06.1v.12l.13.14.15.1zm-84.5-3.38l-.02.06-.3-.3-.32-.15.14-.04.27.04.1.04.11.15.01.2zm86.5.06l-.44.05-.1-.13-.11-.6.31-.47.4-.28.27-.07h.1l.23.34-.18.69-.21.35-.26.12zm-8.47-1.65l-.02.06-.1-.33.08-.16.13.06.02.06-.11.15v.16zm-80.46.8l-.17.03-.17-.07-.14-.16-.75-.45-.23-.01-.16-.12-.2-.04-.2-.3-.05-.17.15-.08.1-.17.25.08.28.3.29.1.07.06.15.17.65.4.07.14.05.13.01.16zm34.54-1.5l-.13.14-.15-.1.23-.29.05-.02v.26zm-8.7.1l-.1.02-.04-.08v-.26l-.04-.08v-.14l.1.07.09.06.1.05.07.03.04.02-.07.2-.14.12zm1.47-.8v.19l-.2-.12-.04-.2.07-.07.13.03.04.17zm31.61-.34l-.03.09-.24-.23-.06-.16.03-.13h.24l.13.07-.07.36zm22.24-.44l-.06.09-.34-.15.01-.25-.04-.12-.09-.13-.04-.12.04-.14.2.17.12.28.16.26.04.12zm3.32-.92l-.04.04-.1-.08-.07-.08v-.08l.08-.05.14.13v.13zm-.37-.29l.01.12-.17-.27-.06-.31.13.1.15.24-.06.12zm-24.56-.86l.1.26.01.1-.52.15-.3-.33.06-.13h.27l.38-.05zm-26.6 1.37l-.38.1-.22-.14.24-.17.08-.02.06-.03.02-.07-.43-.12-.12-.1-.12-.26v-.17l.56-.43.13-.05.02.18.38.46.02.3-.02.11-.22.41zm22.9-1.85l.1.06h.15l.16-.05.4.04.72.01.49.1.48.3.24.06h.1l-.02.03-.19.08-.1.16.27.24.02.16.2.14.25.23.01.07.09.1.04.13-.18.12-.23.02-.18-.12-.15-.14-.05.18-.12.1-.45-.03h-.32l-.32.05.16.03.14.06.5.45.1.17-.17.34.09.14.19.08.23.17.17.01.12.1v.16l.07.15-.18.06.18.04.17.08-.09.08-.07.09.08.05.23.08.1.09.05.21.23.36.41.45.09.17v.15l-.07.13-.23.15-.19.2-.02.07-.26.1.12.06.1.1.17.28.42.45.22.17.87.62.47.27.6.62.3.14.06.17-.25.27-.38.13-.62.07-.62-.1-.32-.07-.27-.15-.23-.3-.29-.17.11.18.07.2-.03.2-.12.16-.19.11-.21.1-.1.07-.52 1.07-.09.3-.16 1.2v.34l.23.63.02.34.05.14-.03.12-.11.07-.46.2-.32.16-.27.23-.2.28-.2.2-.24.11-.18-.02-.15-.1-.1-.18-.06-.2-.04.15v.15l.1.15.03.17-.05.16-.1.14-.3.14-.15.13-.03.22-.08.12-.1.1-.41.22-.1.09-.06.11.22-.02.2.02.01.22.06.16-.07.36-.3.24.14.05.14.08.3.06.11.25-.04.31-.06.28-.22.07-.14-.05h-.14l-.1.1-.03.13.19-.07-.01.36-.06.35-.06.19-.11.15-.18.05-.16-.11-.04.13.05.12.24.28-.15.06-.1.1-.05.13-.26.32-.11.23-.05.25-.12.2-1.94.86-1.56.73-.12-.05-.07-.1-.06-1.14-.2-.57-.02-.33-.22.29-.14-.03-.14-.07-.11-.1-.01-.12.12-.36-.15.2-.15.15-.17-.02-.14-.08-.05-.12-.07-.02-.35.32-.45.17h-.25l-.2-.1v-.24l-.01-.24-.06-.14-.12-.05-.11.02-.33.12-.11-.02-.06.07-.86-.87-.18.7-.6.37-.43.22-.43-.08-.44-.14-.44.17-.48.4-.13.07h-.14l-.1-.06.03-.3v-.32l-.03-.7-.04-.13-.14-.19-.18-.14-.1.1-.1.14h-.36l-.35-.11-.3.06-.6.28-.32.04-.17-.06-.1-.15.06-.14.13-.1-.25.08-.2.14-.1.09-.1-.05-.26-.31-.55.12-.07.03-.13.1-.13-.05-.07-.11-.02-.65-.28-1.26-.07-.64-.06-.15-.32-.23v-.33l.18-.28.03-.32-.05-.35-.1-.35-.12-.26-.18-.22-.25-.25-.29-.18-.63-.21-.34.02-.12-.08-.08-.1.03-.21.11-.15.15-.04.02-.08-.32-.17-.27-.22-.08-.14-.03-.15v-.35l.08-.22.04-.12.09-.36.17-.12-.03-.06-.07-.05-.1-.13-.1-.13-.2-.24-.36-.28-.07-.49-.04-.72.03-.33.11-.61.2-.2.16-.05.12-.08-.1-.01-.09.03-.15.02.13-.55.06-.16.25-.3.3-.28.12-.32.17-.28.7-.29-.26.36.03.14.06.11.18.08.06.45.22.26.23.23.17.11.19.16.13.16.13.12.2.13.57.54.23.15.18.16.12.06.3-.05.9-.38.16-.03.3-.06.51.02.55.13h.18l.16-.07.24.02.22.04.1-.03.32-.28.43-.08.14-.28.1-.26.06-.28.18-.1.25-.1.38-.13 1.3-.02.12.05.03.15-.03.1.05.07h.18l.15.07.65.22.28.07.15-.02.3.2.17-.06.22-.15.2-.19.2-.15.26-.05h.36l.41-.05.31-.08.35.14.1-.05.06-.13.18-.28.08-.2.07-.36.05-.09.13-.05.14-.06.03-.11.05-.13-.04-.1-.07-.1-.09-.3.03-.15.05-.1.14-.05.37-.23.33-.26.18-.13.07-.09v-.12l-.14-.12-.14-.07V451.27l.04-.1-.02-.1v-.13l.08-.15.2-.22.17-.14.17.08.2-.04.2-.07.1-.26.03-.12-.03-.1.07-.37.02-.05.12-.24.02-.15-.08-.36.05-.28.02-.57.08-.1.09-.3.14-.3.29-.17.15-.22.06-.04h.1l.36.15.3-.18.3-.02.23.03.13.07.13.05.28-.17.08.06zm28.53.9l-.1.06-.2-.02-.01-.14.18-.26.12-.26-.13-.07-.12-.17v-.2l.1-.36.15.03.14.15.06.3.1.23-.2.3-.09.41zm-84.3-3.31l.35.02.63-.15.35.02.33.1.29.07.72-.08.14.02.13.06.11.1.33.36.57.45.16.28.1.32.05.07.63.61.07.26-.09.35.19.28.61.27.36.2.08.1.05.15.2.2.26.14.78.36 1.03.75.58.35.49.54.17.26.15.28.3.4.5.5.12.15.14.23.15.2.19.19.22.15.23.04.37.36.2.12-.04-.29-.17-.25v-.14l.03-.14.14-.11.16-.03.3.1.5.43.22.25.16.35.13.35.2.18.27.07.3.02.28.1.65.5.22.23.17.28.11.32.07.34.04.08.42.4.22.18.28.09.78.09.28.14.23.23.1.25-.17.2-.62.33-.65.23.64-.08.32-.1.3-.14.3-.19.46-.26.18-.05.2.02.19.07.27.26.26.27.2.31.12.35-.22.19-.33.14-.44.34-.05.13.09.09-.1.25.24.15.04.13-.22.2.02.1.26.5.13.11.4.26.6.25.34.12.38.09h.17l.28-.05.06.1.13.49.06.31.09.66.1.27v.33l.14.28.3.18.32.15.15.15v.22l-.06.17-.1.13-.33.29-.06.12-.05.31.06.15h.13l.1-.07.4-.42.1-.07.16-.06.15-.04h.72l.31.06.27.14.24.17.89 1.1.4.6.03.15v.15l-.06.13-.37.4-.04.12-.12.45.02.32.12.14.1.15v.13l-.25.67-.02.1.15 1.09.01.3-.03.37.03.6-.2 1.85-.04.1-.15.29h-.2l-.16-.05-.11-.11-.06-.13-.1-.11-.48-.34-.12.05-.49.42-.13.07-.16-.05-.26-.13-.8-.45-.06.15-.01.19.16.48.02.22-.15.04-.08-.01-.33-.28-.32-.31-.35-.43-.26-.2-.23-.22-.65-.85-.17-.13-1.01-.6-.2-.15-.27-.25-.28-.22-.6-.35-1.07-.88-.46-.5-.51-.82-.17-.2-.86-.62-.47-.37-.2-.21-.45-.74-.13-.25-.17-.22-.28-.18-.24-.21-.48-.67-.15-.27-.12-.3.02-.57-1.02-1.76-.26-.54-.24-.76-.05-.08-.56-.68-.2-.22-.24-.2-.2-.24-.38-.77-.15-.22-.2-.16-.72-.29-.28-.16-.21-.23-.13-.3-.15-.63-.35-.95-.39-1.28-.26-.57-.3-.45-.08-.1-1.33-.81-.23-.12-.24-.07-.34-.06-.26-.2-.11-.38-.06-.5-.07-.3-.07-.18-.56-.35-.21-.28-.19-.31-.16-.24-.61-.83-.21-.22-.26-.15-.77-.16-.22-.14-.37-.47-.23-.24-.67-.53-1.14-1.1-.23-.27-.18-.3-.14-.3-.49-.85.04-.18.07-.18v-.14l-.06-.15.01-.13.14-.08.33-.1.34.01.3.04.31.09.29.18.52.45.3.16.32.07.67.12zm-3.14-1.62l-.05.08-.17-.04-.18-.25.06-.05.11.02.22.06.02.1v.08z"
		},
		"KI": {
			"pts":{},
			"map":"M994.03 466.45l.1.05.06.07.04.1v.03h-.06l-.06-.03-.05-.05h-.02l-.01-.02.06.01.06.04.05.02v-.05l-.06-.08-.04-.03-.04-.02-.05-.02-.04.02h-.02v-.04l.02-.02.06.02zm1.7 1.02v.02l-.03-.02.02-.03.01-.03.02.02-.01.04zm-.4 3.68h-.06l-.02-.01v-.03l.02-.02h.04l.02.03v.03zm-2.74.13l.03.02h.04l.03-.01-.02.02h-.07l-.04-.04.05-.04h.04v.02h-.02l-.03.01v.02zm-6.38.45l.03.04v.02h-.02l-.05-.02-.01-.02.03.02h.02l-.03-.03-.03-.03-.02-.01v-.01h.02l.06.04zM27.6 447.96l.21.24-.04.12-.16-.02-.07-.04.12-.02.02-.04-.05-.07-.08-.05h-.05l-.02.1-.08-.08.05-.07.06-.05.08-.02zm923.8 2.2l-.18.1-.05-.02.2-.13v.02l.03.03zm-.35.22l-.2.1-.06-.06h.07l.14-.1.17-.01-.02.06h-.1zm-917.9 3.3l.46.32-.2.03-.48-.16-.44-.31.13-.07.06.11.2.1.12-.22.08-.05-.35-.23.14.02.33.15-.06.31zm918.38.03l.02.06-.16-.17-.1-.11.01-.05.04.03.06.06.03.04.1.14zm.03.36h-.1l.08-.03.02-.06-.02-.17.04.01.02.07v.1l-.04.07zm.03 1.03l-.07.01.04-.06.32-.06.03-.02.05.04v.03l-.02.02h-.16l-.12.03-.07.01zm-.02.91l.15.1-.02.08-.05.1-.2.21-.05-.02.18-.2.08-.13-.1-.1-.05.02h-.02l-.04-.1h.04l.08.04zm4.1 5.01l-.08.08-.04-.07.05-.08-.08-.36-.12-.04-.08-.1h.04l.12.09.1.04.06.23.04.21zm-13.77.2h-.03l-.05-.02v-.04l.04-.01.05.02-.01.05zm14.51.93l.02.15-.06-.02-.02-.06-.02-.14-.07-.14.08.03.06.11.01.07zM39.8 470.11l-.01.01-.04-.02-.06-.04-.06-.05V470l.08-.02.1-.02.02.03-.02.04-.01.09zm-2.53 4.26l-.06.02h-.08l-.03-.04v-.03h.04l.11.01.03.03v.01zm11.35 16.25l-.03.04-.04-.02-.02-.05-.01-.07.01-.05h.03l.03.07.03.08z"
		},
		"MH": {
			"pts":{},
			"map":"M934.5 427.81l-.06.02-.06-.02.04-.03.08-.01h.03l-.02.04zm5.4 10.76l-.04.04-.27-.02-.12-.06.01-.04.21.04.21.04zm6.31.48l.36.14.46-.07-.07.05-.18.04-.11.03h-.08l-.1-.01-.29-.1-.16-.14.04-.04.13.1zm1.33.25l.1.06h.2l.2.15-.07-.01-.1-.07-.1-.03-.13.01-.06-.02-.04-.1zm-5.4 3.38l-.06.08h-.06l.06-.06.04-.1.07-.24.13-.09.1-.1-.02.1-.15.12-.11.3z"
		},
		"MP": {
			"pts":{},
			"map":"M875.62 406.04l-.08.1-.07-.08-.02-.15.12.01.05.03v.09zm.2 1.99l-.14.06.17-.29.05-.05.08.1-.17.18zm-.19 5.03l-.06.02-.09-.01-.06-.05-.01-.07h.17l.07.05-.02.06zm.11 3.46v.07l-.15-.01-.04-.04.08-.26.2-.11.1-.03-.09.12-.01.14-.09.12zm-.24.47l-.12.14-.08-.23-.01-.09.1-.08h.06l.05.26zm-1.11 2.31l-.14.14-.1-.03-.06-.04-.02-.08.23-.07.09.02v.06z"
		},
		"MY": {
			"pts":{},
			"map":"M796.2 438.96l-.16.15-.06-.18.01-.23.23-.21.33-.04.04.17-.04.19-.07.1-.27.05zm1.21 8.32h-.1l-.24-.06-.48-.3-.5-.1-.7-.01-.41-.04-.16.04h-.15l-.1-.06-.1-.03-.28.18-.13-.06-.13-.07-.24-.02-.28.02-.31.18-.35-.16h-.1l-.07.04-.15.22-.28.17-.15.31-.09.3-.07.1-.02.57-.05.27.07.36-.01.16-.13.23-.02.06-.06.37.02.1-.02.12-.1.26-.2.07-.2.04-.18-.09-.16.15-.2.22-.09.14v.14l.03.1-.05.1V451.53l.14.06.15.13v.12l-.09.08-.18.13-.32.27-.37.22-.14.06-.05.1-.03.14.08.31.08.1.04.1-.05.12-.03.11-.14.07-.13.05-.05.09-.07.36-.08.2-.18.28-.06.13-.1.04-.35-.13-.3.08-.42.05h-.36l-.27.05-.18.15-.21.19-.22.14-.17.07-.3-.2-.15.01-.28-.06-.64-.23-.16-.06h-.18l-.05-.07.03-.1-.03-.15-.12-.06-1.3.02-.38.13-.25.1-.18.1-.05.28-.1.27-.15.27-.43.09-.32.28-.1.03-.22-.04-.24-.02-.17.07h-.17l-.55-.13-.52-.02-.3.06-.15.03-.9.38-.3.04-.13-.05-.17-.16-.23-.16-.56-.53-.2-.13-.15-.12-.13-.16-.18-.16-.17-.12-.23-.23-.23-.25-.05-.45-.18-.08-.06-.12-.03-.13.25-.36.18.38.07.09.4.26.34.13.36.05.36.01.15-.02.14-.05.14.06.77.42.3.07.31-.03.13.04.44.32.13.04.21-.02-.27-.15-.18-.1-.09-.2.05-.2.18-.15.12-.15.05-.45.07-.23.15-.22.05-.2-.16-.16-.04-.28.03-.23.1-.15.15.1.15.1.15-.01.1-.04.02-.12-.02-.2v-.38l.2-.3.3-.2.3-.1 1.08-.18 1.72-.43.51-.17.2-.08.15-.12.26-.39.5-.6.36-.5.73-.72.6-.67.07-.12.1-.37.01-.17-.02-.18.08-.08.12-.05h.02l.09.08.2.1.15.14.1.18.08.16v.15l.1.11.26.02.09.15.18.25.16.18.1.06.14-.03.2-.17.13-.2.1-.27-.07-.04.13-.2.02-.1-.06-.1-.08-.1-.03-.25-.05-.31-.04-.15.11-.1.22-.13.23-.15.23-.12v.58l.06.3.15.53.18.07.22.05.12-.02.08-.03.02-.04-.13-.21-.04-.5-.1-.32-.17-.32-.08-.09.65-.1.15-.1.26-.21.1-.13.07-.28-.32-.16-.12-.21-.01-.23.38-.43.13-.1.06.15.17.03.16.01h.15l.22-.22.12-.31.4-.44.13-.33.08-.36 1-1.08.11-.18.6-1.1.06-.03.16.1.05.35-.02.15-.1.23-.05.24.06-.01.28-.14.3-.39.16-.33.14-.14.28.08.06.05-.02.24.03.14.1.3.25.18.33.11.3.17.1.1.07.13.07.22v.21l-.22.21.1.34-.02.2-.08.18-.32.15.88-.15.22-.1.3-.22.16.2.15.33-.12.09-.38.12-.03.05.13.18.16-.02.32-.12.29-.19h.14l.15.04.28.12.16.1.14.12.09.26.33.1.68.35.12.03.13.01.36-.05.13.06.09.13.02.16v.17l-.04.13-.08.1-.25.17-.6.22-.68.16-.33-.01-.47-.14-.18.02-.16.06-.21.44.39.45.66.46.09.11-.03.14-.1.09-.14.05-.37.07-.38.05-.31.08-.3.1-.32-.03-.43-.2-.12-.02-.14.1-.12.3-.06.07zm-43.01-5.74l.47.1.19.1.54.85.71.6.3.23.23.1.32.33.28.4.6 1.15.11.5.04.77-.13 1.15-.17.57.03.27.23.42-.07.4.05.32-.02.9.13.27.14.17.77.54.06.2.37.68.7 1.49.2.67-.03.18-.08.07-.2.07-.18-.13-.06-.1.02-.11-.07-.12-.16-.13-.1-.13.03.2v.27l-.22.02-.27-.08-.34.07-.4.32-.2.01-.14-.27-.08-.2-.11-.12-1.28-.69-.47-.17-.5-.52-1.12-.56-.7-.56-.32-.34-.72-.31-.31-.36-.16-.07-.15-.12.16-.35-.07-.37-.08-.3-.52-.61-.25-.42-.48-.42-.19-.25-.19-.28.12-.1.1-.06-.1-.2-.27-.36-.13-.4v-.78l-.4-1.09-.33-1.5.07-.53-.1-.57-.22-.55-.28-.4-.12-.32.06-.13.06-.43.04-.08.12-.04.12.01.23.37.6.23.2.05.23-.09.1.06.11.1.07.26.16.24.31-.03.12.03h.06l.06.22.03.37-.03.21-.23.3-.03.22.12.12.16.14.09.1h.1l.11-.08.1-.18.08-.15.41-.18.43-.15.05.02.07.06.13.23.08.05.12.02.2-.02.23-.13.12-.24.05-.19.33-.32.04-.25.1-.16zm-6.27-.62l.2.3-.1.13-.05.04-.12-.05-.11.12-.1.02-.11-.2-.14-.09-.03-.15.18-.02.11.05.2-.1.07-.05zm1.23 3.25l-.07.07-.2-.04.03-.46.12-.06.18.08.08.08-.14.33zm48.91 3.07l-.38.05h-.27l.05-.1-.02-.13.13-.03.15.02.34.19zm-46.05 3.31l-.14.05v-.07l.01-.1.1-.1.05.06-.02.16zm8.07.71l-.13.03-.08-.02-.05-.1.12-.25.04-.05.1.27v.12zm19.93.88l-.09.03-.13-.1-.03-.83.1-.08.05.01.07.15v.69l.03.13z"
		},
		"NC": {
			"pts":{},
			"map":"M915.22 513.19l-.04.06-.02-.46.09-.18.04.36-.07.22zm11.81 2.74l.32.19.33-.08.43.3 1.08.88.37.19.22.06.17.15.15.2.21.15.09.14.02.18.07.11.38.3.22.25.32.13.13.16.17.07.18.16.3.13.69.45.53.43.26.27.28.24.36.2.35.21.17.51-.1.19-.2.1h-.18l-.16.06-.57-.33-.13-.05-.15.02-.09-.07-.06-.1-.35-.12-.31-.2-.1-.13-.05-.17-.08-.1-.45-.14-.31-.16-.22-.23-.35-.16-.53-.33-.28-.1-.24-.16-.64-.6-.23-.1-.2-.26-.56-.62-.26-.26-.3-.23-.22-.26-.17-.32-.4-.45-.05-.19.02-.2-.1-.12-.16-.08-.08-.13.01-.18.06-.1.4.3zm6.52 1.34l-.14.03.18-.27v-.17l.07-.33v-.1h.1l.14.1-.15.08-.05.15.01.17.06.04-.1.19-.12.1zm2.38 1.37l-.15.02-.2-.22-.4-.1-.16-.19-.11-.22.22-.06.22-.3-.15-.1-.26-.03.03-.11.41-.14.18.08.09.1-.02.46.19.15.2.34v.1l-.1.22zm1.7.8l.12.05.23-.01-.05.5-.32.09h-.1l-.07-.11-.19-.07.01-.18-.18-.39.31-.06.18-.1-.01.1.02.1.04.07zm-1.3 3.55l-.1.11-.1-.02-.08-.04-.06-.06.06-.23.24.11.04.13z"
		},
		"NF": {
			"pts":{},
			"map":"M937.42 542.65l.06.03.06.02.03.02v.06l-.03.05-.03.02-.01.01-.01.01v.03l-.02-.04-.03-.03h-.03l-.02.03h-.02v-.04l-.02-.03v-.03l.01-.02.02-.03v-.02l-.01-.01h-.04l.04-.04h.05z"
		},
		"NR": {
			"pts":{},
			"map":"M934.7 460.24l-.06.09-.06-.01-.03-.07.03-.06.07-.03.05.02v.06z"
		},
		"NZ": {
			"pts":{},
			"map":"M981.58 593.56l-.1.1h-.17l-.3.39.02-.3-.09-.11-.26.03-.05.06.18.07.03.05-.16.17.17.36.15-.01.15.28v.09l-.34.1-.17.16h-.16l-.07-.04-.09-.27v-.11l.19-.2.1-.2-.08-.2-.23-.12-.48.06-.1-.04.23-.25.26.02.28-.18 1.09.09zm0 2.24l-.12.03.02-.22-.04-.15.2-.04.1.17-.16.2zm-29.34-33.84l.04.15.16-.1.11-.18.19-.18-.02.29.09.06.61.2.13.16.13.05.07-.1.09-.05.23.11.5.29.04.1-.03.15.03.15.06.13.17.03.22-.19.1-.02.15.26.06.15h-.02l.1.14.12.15.22.43-.03.16-.06.14.2.4-.13.03-.4-.07.01.08.23.3.2.41.15.26.55.78-.08.28.01.19-.07.16.19.41-.11.13-.08.44-.09.07.01.16.23.04.13.06.12.13.07-.15.1-.04.26.2.55.2.15.08.08.17.05.4.1.17.22.04.23-.06.07-.14-.05-.4-.16-.62v-.2l.02-.21-.04-.2-.08-.2-.09-.14-.11-.12.04-.19.17-.08.1.16.09.19.42.58.26-.04.02.24.17.24.1.29.12.85.2.81.34.36.04.17-.21-.1-.07.06.03.08.19.16.23.08.15-.01.13.05.9.53.43.2 1.09.34.31.03.18-.01.32-.12.3-.2.25-.32.22-.36.23-.17.27-.14.14-.12.14-.1.73.04.25.19.32.14.16.11-.06.23-.2.35-.14.37-.13.85-.09.85-.13.38-.24.3-.27.21-.3.1-.13.5-.06.57.02.14.1.11.04.18-.16.35-.1-.06-.12-.28-.12-.12-.37-.1-.36-.04-.32.02-.31.13-.47.25-.15.13-.12.16-.22.36-.05.44.01.23.08.18.4.24-.4.86-.35.9-.2.25-.23.24-.21.53-.38.47-.25.36-.2.36-.17.4-.37.56-.16.37-.22.3-.4.4-.42.34-.67.47-.19.15-.2.12-.24-.14-.05-.15-.06-.32-.05-.11-.31-.1-.41.16-.07-.04-.02-.07v-.47l.07-.13-.1-.07-.1.03-.02.12.06.1-.24.13h-.24l-.07-.05-.02-.08.06-.15.08-.12.45-.58.47-.78.4-.82.1-.43.15-.78-.12-.33-.15-.3-.4-.6-.55-.32-.35-.05-.33-.12-.32-.29-.28-.32-.56-.27-.6-.22-.34-.3-.08-.17-.06-.21v-.19l.05-.2.07-.14.1-.1.64-.4.67-.2h.12l.12-.04.16-.13.3-.3.09-.2.06-.64.1-.62.17-.72.26-.44.09-.27-.1-.45.09-.16.12-.1.13-.06-.22-.42-.28-.63-.05-.2.04-.19.06-.18-.17-.05-.1-.18-.23-.61.06-.1.14.07.2.43.04-.23.16-.14.17-.07.18-.01-.41-.5-.14.03-.18.08-.18.04-.18-.04-.17-.1-.1-.21-.1-.4-.06-.14-.54-.8.16-.03.43.4.09-.13.06-.19-.02-.2-.1-.16-.16-.1v-.19l.12-.16v-.12l-.26-.23-.1-.03-.04.1.07.17-.07.02-.6-.43-.19-.35-.15-.38-.02.15.02.22.24.44.4.5.06.13-.06.17-.14.04-.12-.1-.17-.42-.13-.21-1.48-2.17.19-.28.29-.24.06-.1.05-.13-.12-.02-.11.06-.13.1-.12.13-.14.27-.07.07-.17-.2-.07-.11v-.14l-.04-.1-.13-.02-.2-.28-.11-.15.2-.28v-.36l-.2-.38-.24-.35-.47-.56-.43-.6.46-.07.48-.02-.23.36.1.2.15.18.33.53.03.15.16.16.1.13zm6.32 4.58l.02.19-.2-.07-.1-.14-.23-.15-.03-.04-.03-.28.13-.14.02-.06.05-.02.1.14.19.22.08.35zm-6.75 17.77l.32.02.3-.27.3-.22.32-.18.5-.42.12-.06.32-.08.13-.1.16-.02-.15.25-.17.08-.02.09.1.14-.16.2v.25l-.17.29.28-.12.1-.2-.06-.1.12-.21.19-.1-.07-.17v-.12l.23.04h.1l.1-.05.16-.02.04.14.21-.02-.08.18-.16.21-.04.13-.27.2-.18.1.27.02.4-.28.25-.25-.01.31-.2.28-.16.18-.19.06-.19.14-.09.23.01.16.06.12.19.21-.22.4.24-.04.14.07.18.23-.1.27-.08.14-.47.57-.2.29-.24.18v.3l-.14.23-.7.76-.12.17-.55 1.22-.35.51-.2.18-.21.14-.51.24-.23.28-.25.23-.26.06v.1l.17.06.13.15-.1.17-.18.11-.2.03-.1.1.47-.07.13.09.02.19.05.17.11.22.4.15.35.07.06.1.06.36-.07.18-.07.12-.12.04-.28.02-.29-.08-.19-.22-.54.07-.14.04-.08-.04.3-.23-.15-.13-.14-.05-.14.08-.1.12-.02.2-.1.11-.15.03-.2-.16-.22-.24-.3-.23.05.14.23.36.12.24-.28.19-.28.15-.25.09-.22.13-.27.22-.15.07h-.4l-.2.07-.07.28-.15.18-.35.04.13.05.07.1-.22.85-.05.35-.05.6-.14.57h-.41l.06.1.31.16-.05.24-.34.44-.15.25-.14.62-.2.57-.32.65v.12l.1.17.14.15v.2l-.03.1-.15.03-.14.07-.7.18-.24.2-.19.37-.22.3-.75.7-.43.59-.1.16-.11.13-.96.27-.68.05-.36-.07-.36-.15-.2-.05-.37.1-.17.09-.3-.1-.22.07-.07-.06-.1-.18.06-.23-.06-.16-.15-.12-.1-.13-.12-.1-.31-.03-.49.06h-.16l-.34-.57-.1-.13-.4-.18-.14.02-.21.3-.13.05-.74.03-.75-.1-.28-.1-.05-.26.57-.7-.17.09-.36.28-.22-.04.22-.31.02-.14-.05-.16-.3.27-.32.03-.05-.23.03-.28.07-.08.9-.15.32-.1.14-.15-.54-.05-.03-.21.07-.17.47-.28-.34.07-.38-.02.02-.3.1-.23.4-.01-.12-.16-.02-.22.1-.02.4.3.3.1-.13-.22.02-.14.07-.06.24-.05-.07-.04-.22-.06-.26-.17-.03-.18.01-.2.29-.3.16.18.2-.05-.15-.13-.1-.2.07-.13.6-.53.15.51.04-.17v-.16l-.06-.14.01-.14.06-.12.26-.12.34-.4.25-.17.2.11.14.16-.02-.16-.1-.13-.03-.35.45-.55.5-.52.47-.55.25-.2.54-.22.34.09.1-.02.5-.4.22-.1.2.14.11.06-.12-.36.1-.16.42-.3.54-.3.4-.12.3-.2h.18l-.02-.16.03-.14h.15l.05-.05-.14-.08.44-.3.24-.31.13-.07.1-.1.15-.22.16-.07.16.03.1.11-.05-.18-.2-.1.21-.16.22-.11.22.08.21.13-.2-.2-.04-.12.25-.14.14-.04.2.26-.03-.2.04-.19.28-.3.36-.49.11.18.02.2-.02.25.07-.08.03-.23-.06-.4.45-.74.1-.08.1-.05.15-.02-.05-.1-.12-.12.12-.36.07-.43.1-.41.18-.4.18-.66.14-.14.38-.05.16-.1.27-.23.33-.43.18-.35.23-.9.13-.93.36-.7.55-.5.48-.37.2-.08.32-.02.32.1-.59.1-.06.22-.02.23.07.2.1.19.28.17.34.1.14.4.03.45.04.4.15.35zm2.23-1.53l-.38.22.02-.15.07-.32.17-.16.08-.01.18-.13-.02.27-.13.28zm-19.28 16.37l.12.47-.26-.1-.1-.14.19-.23h.04zm-.65 1.87l-.02.2-.03.1h-.1l-.14-.02-.15-.1-.09.03-.07-.03.1-.22.32-.12.13.1.05.06zm3.88 4.84v.16l-.28-.06v.18l.23.1.08.13.24-.04.06.2-.06.17-.16.13-.47.07-.3.25-.27-.04-.07.02-.3.28-.34.08-.1-.02.05-.24.26-.23v-.22l.06-.18.25-.13v-.23l.16-.2-.1-.44.06-.4.47-.01.53.67zm-5.34 16.42l.06.37h-.16l-.3-.1-.11-.16-.07-.03-.11.18h-.19l-.04-.05.07-.2.44-.37.08-.46v-.15l.34-.03.08.06.04.06-.02.08-.14.15-.01.18.04.19-.12.09.06.15.06.04zm8.22 7.76l.15.23-.3.1-.14-.08-.1-.1-.05-.16.16.02.13-.06.15.05z"
		},
		"PG": {
			"pts":{},
			"map":"M897.38 490.71l.47.15.15.16-.16.08-.4.05-.1-.1-.4-.1-.06-.19-.19.06.1-.12-.24-.15-.08-.2-.01-.07.29.09.63.34zm2.08-.32l-.05.16-.1-.06-.3.08-.16-.02-.1-.14-.01-.06.26.05-.04-.15.38.08.12.06zm-9.4-2.24l-.05.22-.23-.06-.04-.05.03-.14h.2l.08.03zm.5-1.53h.12l.2-.2.16-.07.11.1-.18.66-.15-.1-.6-.19-.02-.26-.16-.09-.1-.26-.2-.28-.03-.19.11.08.13.19.52.38-.02.12.11.11zm-1.54-1.88l.4.22.2-.06.13.04.25.26.01.2.04.17-.01.06-.14.1.01-.1-.1-.03h-.37l-.28-.06-.39-.02.16-.18.04-.07-.2-.28-.02-.14.02-.07.17-.04h.08zm-.5.4l-.04.07-.17-.04-.45-.4.07-.28.2-.15.32.17.1.23.03.13-.07.28zm6.35-1.49l.16.04.34-.02.1.16.16.06.13.07.12.1v.07l-.03.05-.07.05.02.11-.12-.01-.15.06-.3-.13-.11-.03-.03-.12-.2-.18-.34-.14.17-.11.15-.03zm-25.14-.9l.06.11-.4-.16-.4-.29-.2-.07-.12-.19.24.14.42.13.4.32zm20.9.27l.05.2-.22-.21.1-.24.02-.14-.01-.07-.22-.12.11-.2.12-.08.08-.02v.29l.06.13-.09.46zm-20.9-.7h-.12l-.5-.18-.12-.14.57.03.15.04.03.18-.01.07zm12.34-7.4l-.12.03-.05-.13-.26-.1-.26-.35v-.29l.04-.08h.15l.57.33.07.1-.05.32-.1.18zm22.04 2.4l-.06.26-.05.04-.07-.1-.23.1-.12.1-.12.08-.29-.02-.26-.07-.27-.13-.23-.17-.23-.27-.14-.27.07-.32-.1-.29-.43-.2-.1-.07-.2-.29-.18-.12-.25-.25-.07-.11-.1-.32-.03-.2.08-.55-.02-.28.11.03.13.1.15.08.35.05.27.23.26.43.03.15.08.1.27.19.14.11.26.48.14.1.18.04.16.07.26.2.25.24.16.25.13.27.08.32zm-24.4-3.49l-.16.02-.25-.27-.07-.1.02-.14.33-.18.2.17.05.36-.13.14zm20.76 0l-.05.02-.12-.35-.02-.26-.04-.19-.06-.11.18-.21.07-.06.14.1.02.26.1.2-.07.46-.15.14zm-23.98-1.95l-.19.08-.13-.07-.06-.18.04-.18.17-.13.1-.05.12.1.04.19-.1.24zm16.39-1.2l.14.06.42-.29.22.2.29.1.3.06-.12.42.03.19.08.19-.01.28-.14.25-.26.37-.12.06-.14.04-.42.03-.08.2.02.2.23.27.18.3-.18.29-.3.2-.29.1-.47-.06-.5.02-.1.1v.18l-.07.14-.1.12-.24.25-.29.23-.39.21-.13.05-.34.04-.31.12-.14.12-.15.1-.32.1-.32.21-.13.04-.66.03-.94.01-.28.03-.27-.03-.15-.08-.32-.38-.28-.13h-.3l-.4.14-.08-.03-.82-.56-.24-.14-.26-.1-.32-.07-.3-.11-.19-.27.02-.35.24-.2.37.1h.15l.13-.06.17.02.16.05.6-.07.35.1.34.14.31.03.33-.03.44-.15.13.02h.42l.37-.22.13-.85.1-.3.12-.05.09.01.14.15-.18.18-.07.14-.03.34.1.33.22.27.31.03.3-.17.32-.04.3.17.3-.03.14-.11.16-.05.16-.02.15-.06.19-.29.13-.31.19-.26.52-.42.15-.06.16-.02.37.02.28-.16.02-.33-.05-.35-.3-.8-.03-.13.05-.15.09-.13h.3l.33.04.12.13.15.1zm4.85-.54l-.03.06-.16-.07.13-.14.07-.02-.01.17zm-2.75-2.68l-.07.25-.17-.15-.12-.2.08-.1.19-.05.09.25zm-1.59-.5l-.03.13h-.08l-.24-.28-.05-.07.06-.07.28.2.06.08zm-.4-.33h-.06l-.01-.23.04-.11.16.08.03.2-.16.06zm-21.78 2.72l.35.01.36-.04.14.02.15.04.12.08.07.16.22.23.3.1.3.2.27.24.2.24.21.2.34.09.35.01 1.2 1.22.06.18.02.8-.14.62.3.2.41.06.57.14.56.2 1.75.83.24.07.35.03.36-.01.13.04.26.15.14.1.24.28.21.29.1.09.1.06.06.16.09.5-.03.3-.1.12-.27.06-.99.05-.65-.06-.47.31v.14l.02.13.4.66.24.59.2.24.28.2.26.22.24.27.5.46.27.17.32.1.53.36.07.16.15.5.06.33.01.14.04.13.46.3.1.09.21.68.16.32.27.1h.32l.84-.2h.13l.16.04.13.1.05.32-.13.32-.04.31.16.25.44.2.16.06.78.06.3.05.3.09.1.07-.07.14-.15.07-.18.03-.28.1v.17l.16.19.15.22.12.08.14.06.33.07.33.1.22.1.22.08.48.05.36.14.51-.06-.44.23-.15.06-.53-.09-.1.1.22.24.32.16.12.1-.08.1-.38.23-.15.03-.3.02-.5-.1-.34-.12-.1-.17-.1-.1-.31-.23-.23-.13-.28-.04h-.3l-.53-.14-1.16-.1-.27-.06-.35-.18-.17-.03-.17.06-.45.04-.13-.02-.32-.16-.32-.06-.14.05h-.14l-.45-.1-.34-.06-.28-.16-.15-.14-.17-.14-.15-.34-.25-.32-.3-.27-.65-.43-.14-.1-.25-.4.01-.26.1-.27-.14.1-.16-.02-.44-.18-.19-.2-.3-.56-.18-.3-.45-.53-.12-.31-.19-.27-.11-.1-.1-.12-.08-.15-.13-.1-.62-.23-.1-.08-.12-.04-.46-.02-.27-.04-.5-.19-.26-.05-.31-.04-.3-.07-.15-.07-.1-.12-.06-.29-.26.03-.25-.05-.24-.1-.24-.06-.17.09-.05.22-.08.02-.14-.05-.07.03-.16.1-.12.14-.23-.02-.47-.14-.21-.09-.18-.16-.15-.18-.15-.15-.2-.1.25.24.56 1.1-.14.03-.15-.03.14.21-.15.03h-.16l-.3-.1-.32-.02-.1.04.07.08.1.23.1.25-.46.1-.47.07-.52.13-.52.01-.27-.07-.28-.04-.26.04-.26.1-.2-.02-.14-.17-.06-.13-.09-.12-.2.02-.19.07h.33l.1.15.09.17.23.16.28-.1.62.03.6.28.14.03.13.05.3.28.24.24.2.29.04.1-.02.3-.05.15-.4.2-.4.17-.61.3-.6.36-.3-.07-.28-.19-.11-.05-.29-.1-.17-.04-.7.08-.7.04h-.3l-.28-.06-.31-.11-.31.05-.22.13-.23.02-.44-.29V477.93l-.15-.18-.16-.28.03-.36.2-.44.08-.3V466.02H862.82l.23.05 1.39.6.42.24.14.06h.14l.14.03.62.33.94.34 1 .32.3.06.32.03.69.1.36.1.53.4.27.13.25.22.35.24.15.06.14.03zm24.59 2.6l-.2.22-.14-.2-.16-.17-.13-.18-.17-.38v-.19l.04-.2.01-.2-.08-.42-.2-.38-.67-.9-.21-.24-.24-.21-.16-.05-.3-.05-.15-.05-.26-.14-.24-.18-.6-.5-.31-.15-.17-.18-.94-.58-.27-.13h-.34l-.28-.11.23-.08.04-.19-.05-.2.47.33.5.27.15.23.25.01.44.2.3.16.3.19.32.28.63.21.1.08.3.36.43.3.14.18 1.77 1.45.3.4.02.28-.06.1-.19.24v.28l-.06.24-.16.26zm-7.03-5.79l-.56.04-.2-.04-.18-.16-.16-.25-.16-.06-.06-.05.4-.19.34-.06.56.24.06.12v.08l-.01.25-.03.08zm-7.12-1.04l-.1.14-.2-.01-.1-.04.16-.03.06-.12.06-.05.12.1zm-2.25-.9l.93.18h.06l-.01-.06.02-.02.06.04-.03.14-.14.03-.14-.02-.1.07-.26.25-.18-.04-.22.06H879l-.5-.1-.14.09-.17-.02-.18.1h-.07l-.04-.15v-.08l.2-.06-.02-.24.16-.12.3.01.26-.08.59.02zm7.5-1.12v.1l-.2-.05-.06.01-.35-.28v-.18l.1-.15.14.02.26.19.11.34z"
		},
		"PF": {
			"pts":{},
			"map":"M81.16 483.51l-.27.07-.13-.01-.1-.23.04-.14.04-.05.46.06.04.1v.1l-.08.1zm1.44.09l-.18.02-.03-.14.05-.07.08-.04.14.04.07.06v.06l-.13.07zm-1.45 1.36l-.06.05-.11-.17-.02-.07.2-.08.12.04-.13.23zm2.93.75l.41.15.13-.02-.13.14-.41.08-.14.07-.17-.05-.09-.17.4-.2zm-.1.66l-.2.22v-.23l.06-.03h.07l.07.04zm1.13 1.64l-.1.05v-.3l.12.06.06.05-.03.08-.05.06zm-17.79 15.16l-.02.13-.05-.13-.17-.2-.06-.09.07.02.23.27zm7.06.69l-.05.03.06-.23.07-.03-.08.23zm-8.27.67l.01.05h-.05l-.1-.15-.04-.12-.07-.15-.09-.1v-.1l-.01-.15.1.23.1.19.07.15.08.15zm-16.62.95l-.05.02-.06-.06-.02-.08.02-.12.13.08.06.06-.08.1zm21.95-.07l-.11.02-.27-.17h.1l.15.1.13.05zm.36-.04l.15.14-.2-.1-.26-.04.1-.02h.14l.07.02zm-22.15.74h-.11l-.1-.04.02-.3.03-.06.15.1.13.26-.13.04zm4.43 1.93l-.08.08-.12-.06-.05-.07-.02-.08.03-.09.25.02.08.04-.09.16zm1.37.42l.4.14.07.22-.08.14-.2-.03-.1-.08-.15-.26-.39.06-.27-.06-.15-.34v-.15l.06-.1.29-.1.36.08.13.19.03.3zm23.66.49l.02.05h-.1l-.03-.03v-.1l.07-.13.06-.1.12-.1.2-.1.1-.04.04.02-.04.02-.35.2-.1.15-.05.1v.03l.06.03zm-.05.96l.02.08-.1-.05-.1-.15-.18-.18-.04-.08.13.07.09.11.18.2zm10.72.45v.05l-.26-.28.1.03.16.2zm-10.32.1l.04.11-.07-.05-.22-.1-.02-.09.27.14zm12.2.49l-.05.06v-.06l-.09-.03-.1-.07-.15-.07-.08-.01-.04-.04.06-.02.09.03.12.06.15.07.1.08zm-6.14 6.79l-.08.05.03-.07-.07-.17-.06-.02.06-.05.09.13.03.13z"
		},
		"PH": {
			"pts":{},
			"map":"M809.38 400.1l-.14.25h-.1v-.14l.15-.28h.06l.03.18zm.22 1.23l-.05.04-.08-.02.08-.28.14-.07.11.03-.2.3zm-1.22 2.95l.03.27h-.16l-.25-.17-.02-.08v-.06l.04-.07.36.11zm-.75.82l-.01.2-.14-.1-.03-.16.01-.1.07-.13.08.11.02.18zm1.87.55l-.18.2-.1-.05.1-.2v-.08l.09-.15.14-.06.13.16-.18.18zm-2.28.81l.42.15.94.55.35.14.36.1.28.03.25-.13.1-.12.2-.34.2-.04.13.12.1.16.04.24-.06.25-.2.23-.12.27-.08.9v.26l.07.26.17.4.09.12.26.15.07.1.01.2.04.18.17.06.15.09-.06.2-.09.19-.11.48-.56 1.12-.03.23-.22.48-.45.08-.51.23-.3.18-.24.23-.1.31.08.14.06.15-.01.16-.08.14-.24.32-.11.27-.11.12-.06.15.03.16.1.15.3.62.32.6.07.07.03.08-.2.15.01.29.06.28.29.7.04.2.1.15.14.15.16.12.47.2.18.05h.19l.05-.14.16-.05-.04-.14-.2-.19v-.1l.1-.08.12-.04.29-.21.3-.17.37.02.38.1.26.1.22.17.22.31.16.34v.16l-.04.17v.16l.13.1.35.02.19-.26.02-.28-.13-.11.06-.15.11-.1.16.1.15.17.56.2h.14l.12.03.25.14.12.1-.15.23-.56.05-.15.16.16.34.27.27.17.22.14.24v.22l-.1.23.25-.02.23.05.32.2.1.01.1-.03-.01.7-.22.63-.27-.08-.23-.27.05-.32.14-.32-.08-.07-.15.03-.17.07-.19.02-.3-.04-.63-.34-.25-.03-.06-.16.01-.33-.24-.4-.04-.13-.08-.11-.74-.43-.1-.07-.22-.34-.52-.49-.15-.05-.15-.01-.06.12.07.19.03.16-.01.17.02.14.25.26.03.13.17.35.02.4-.21.17-.24-.19v-.15l-.05-.14-.25-.37-.08-.08-.48-.36-.37-.4-.82-.42-.1-.02-.14.02-.13.06-.4.21-.14.15-.02.22-.28.18-.4.03-.3-.12-.24-.22-.2-.01-.26-.35-.31-.05-.26.27-.05-.54v-.55l.06-.16.13-.13.65-.58.08-.19-.03-.24-.14-.2-.23-.13-.27-.05-.2-.11-.15-.19-.1.33.1.49.02.32-.1.12h-.16l-.16-.04-.11-.11-.09-.33-.23-.22-.1-.3-.1-.05-.2.02-.16-.15-.1-.36-.03-.4-.09-.32-.12-.32-.08-.26-.11-1.16-.02-.11-.07-.09-.14-.13-.11-.16-.02-.14.03-.57.05-.14.1-.07.16.11.13.15.15.06.13.09.26.34.1.05h.3l.19-.05.09-.12.06-.15v-.18l-.18-.51-.06-.37v-.34l.05-.33.24-.56.03-.4-.02-.51.04-.32v-.17l-.15-.28-.04-.3.4-1.52.13-.3.1-.3.04-.41.3-.11.3-.17.15.02.16.04.35-.09h.14v.02zm2.59 10.43l.05.1h-.06l-.04.01-.13.2.15.39-.1.27-.15.02-.06-.03.03-.13.03-.07-.03-.18-.1-.11-.07-.23-.11-.13.05-.21.37-.02.17.12zm.4 2.73l-.02.11-.6-.42-.02-.07v-.07l.03-.06.6.5zm6.05 1.18l-.07.19-.1-.07-.13.01-.2.16-.32-.21-.06-.17.24-.36v-.53l.08-.14.09-.1.1-.05.24.38.08.04.22.17-.06.35.02.2-.13.13zm-11.35-.34v.2l-.47-.29-.01-.1.01-.07.05-.04.25.1.17.2zm4.57.6l.17.01.05-.03.33.24-.02.12.04.16-.18.27-.04.1-.1.08-.36-.21-.13-.14-.04-.27.15-.4.13.07zm-3.37.17l.14.03.45-.09.18.04.12.17.15.05.13.08.22-.14.23.16.2.31.23.22.23.16.04.12-.13.2-.05.25.02.27.17.56-.07.15-.17.22-.12.23.02.1-.05.08-.02.17-.1-.03-.1.02-.1.08-.14.16-.23-.05-.1-.05-.03-.14-.07-.1-.1-.06-.23-.24-.11-.2v-.19l-.07-.18-.12-.17-.16-.12-.06-.12-.02-.14-.02-.37-.23-.45-.08-.11-.21-.11-.18-.15-.08-.14-.07-.23-.05-.04-.14.02-.14-.03.04-.18.14-.12.19-.02.51.07.14.05zm7.17 1.78l.23.43-.26-.3-.3-.2-.31-.32-.23-.12-.06-.07.02-.14.17-.02.07.01.45.59.22.14zm1.37 1.13l.01.25-.1-.1-.34-.48-.1-.18.1-.11.24.18.19.44zm-4.67.28l-.23.7-.15-.24.06-.15-.12-.13-.04-.1.05-.16.14-.14.03-.47.28-.14.12-.01-.04.11v.22l-.1.51zm.6-.5l-.09.1-.05-.02-.04-.15.09-.1h.02l.07.18zm3.9.7l.54.33.37.57.04.44-.03.16-.17-.18-.38-.27-.26-.06-.08-.06.03-.14-.17-.14-.02-.05-.16-.06-.22-.3-.16-.06-.15.06-.35.45-.38.31v-.12l.15-.4.1-.62.06-.19-.08-.28-.01-.25.28.12.35.11.27.16.04.1.4.36zm4.24-.69l.2.23.04.17-.02.19.1.08.15.02.2.1.15.16-.09.16.03.23-.16.29.02.5.1.17v.17l-.02.17.04.14.24.47.04.15-.07.13-.02.11.15.02.21.19.12.25-.03.07-.17-.2-.13-.03-.55.06-.33-.09h-.22l-.22-.35-.19-.06-.14-.15-.25-.39-.08-.22.18-.23.05-.18-.01-.18-.17.03-.14-.06-.18-.22-.06-.12-.13-.1-.2-.25-.3-.1-.12-.07-.23-.2-.16-.27-.17-.45-.09-.47.76.13.76-.03.86-.1.25.13zm-7.19.62l-.14.07-.29-.28-.17-.13-.04-.07.14-.1h.36l.2.18.02.12-.08.21zm-7.1.4l.15.04.11-.04.1-.15.09.23.23.18-.08.18-.2.02-.19-.04-.2.08-.25-.05-.15-.17-.17-.31-.08-.06.01-.13.06-.08-.03-.02.02-.05.03-.04.05-.02.14.14.31.2.05.1zm-.17 1.31l-.2.1-.06-.06-.04-.14v-.1l-.2-.5.16-.09.11.07.11.08.1.04.1.16-.01.1.02.11-.09.23zm6.83.25l.33.15.31-.13.31.04.26.18-.08.12-.02.13.58-.28.15.02v.26l-.04.23-.06.21-.13.25-.16.23-.22.17-.26.1-.12.09-.03.14v.17l-.06.16-.27.06-.42.31-.9.2-.25.13-.15.17-.18.16-.1.03-.04-.07-.01-.06.12-.4-.02-.18-.06-.16.04-.32.16-.3.08-.34.02-.64.12-.9v-.1l-.1-.12-.35-.1-.14-.1.07-.17.13-.13h.19l.16.12.56.24.3.2.28.23zm6.56.06l-.05.14-.08-.04-.07-.06-.1-.22-.04-.16.16.09.09.16.09.09zm-.69.29l-.34.02-.15-.13-.2-.38.22-.08.2.02.15.13.16.26-.04.16zm-.09.42l.2.1.22-.04.26-.23.31.08.18.33.1.13.04.21-.01.52-.07.47.05.1.15.08.11.1.1.14.07.14.03.36.18.3.02.12-.04.13-.3-.03-.02.1.01.14-.1-.08-.17-.3-.16-.12.05.47.05.23.01.23-.27-.17-.32-.11-.1-.1.04-.3v-.14l-.15-.32.17-.68-.01-.14-.03-.14-.13-.28-.22-.23H817l-.31.16-.16-.05-.1-.64-.12-.62-.1-.16-.06-.16.06-.14.12.06.17.16.21.1.1.07.07.15zm-13.1-.52l.06.15-.08.22-.06.05-.1-.09-.18-.07-.02-.11h.1l.19-.12.09-.03zm-7.1 8.66l-.25.2.03-.25.07-.23.27-.49.18-.14.32-.38.17-.19.43-.36.39-.4.13-.03h.14l.11-.05.26-.21.64-.72.52-.54.54-.67.26-.2.07-.07.5-.62.15-.1.18-.06.11-.09.11-.1.17-.27.07-.32-.04-.18-.1-.27.12-.36.1-.16.35-.74.1-.14.15.09.02.13-.07.31v.16l.07.15-.1.26.25.7.19.43v.15l-.25.26-.15.08-.33.07-.14.07-.24.22-.14.27-.04.15-.07.1-.68.2-.32.12-.14.1-.08.15.06.26-.57.97-.18.25-.2.22-.23.15-.34.09-.26.19-.18.33-.23.3-.28.21-.3.2-.28.14-.3.1-.09.13-.06.16-.14.08-.15.04-.3.15zm17.93-7.97l.16.37h-.22l-.08-.27.1-.1h.04zm-1.08 5.14l-.1.08-.05-.19.03-.25.22-.87-.05-.22.35-.48.22-.46.33-.48.04-.25.3-.47.27-.66-.02-.21.07-.11.04-.16v-.15l.2-.24.06.16-.06.31v.15l.04.07v.3l-.07.43.07.52-.13.52-.14.23-.22.17-.24.1-.24.26-.16.3-.02.28-.4.93-.34.4zm-.66 1.08l-.19.03-.2-.02-.12-.13-.23-.6-.26-.14-.3-.1-.15-.1-.13-.11-.43-.6-.03-.35.07-.21.13-.18.15-.05.34-.01.19-.02.4-.27.02-.11v-.45l-.04-.3-.1-.32.1-.14.15-.13.14-.27.03-.2v-.2l.04-.14.11-.06.55-.22.1-.02.7.2.15.3.02.1-.11.34-.1.22-.24.35-.18.37-.13.57-.08.18-.22.36-.07.19v.42l-.03.15v.15l.43.7.04.1v.13l-.08.15-.18.27-.1.1-.16.07zm-1.34-3.94l-.08.03h-.06l-.17.1-.06-.19.06-.32.25-.24.06-.08.06-.05h.08l.08.1.02.14-.15.44-.1.06zm4.63-.38l-.07.01.12-.29.1.04.04.03v.14l-.19.07zm-12.23.34l-.34.08-.08-.27.24-.25.27.1.17.1-.08.1-.18.14zm16.05 1.6l-.05.08-.06-.16-.16-.15-.16-.26-.1-.08.07-.2v-.33l.16-.16.07-.04.12-.16.05-.01.05.13-.1.42.15.48-.05.3.02.07v.07zm-3.05.36l-.02.1h-.3l-.2.28-.12.06-.66.09-.52-.07-.18-.15-.12-.23-.03-.16.13-.17.12-.12.42-.22.1-.18.22-.2.45-.07.05.05.06.04h.09l.22.17.26.11-.07.42.08.14.02.1zm1.91-.55l.02.14-.35-.37-.07-.25h.12l.15.11.13.37zm2.17.6l-.04.02-.15-.21.02-.25.21-.37.16.32v.15l-.03.07.15.18-.1.1H821zm-.15 1.25l.23.17.3-.04-.01.42.05.13.27.36.03.3-.15.28-.12.13-.22.2v.08l.09.1.3.06.23.15.04.44.22.35v.15l-.09.61.03.27.16.21.14.1.07.12.07.37-.02.61-.02.22-.1.2-.3.46-.4.35-.22-.02-.06.1.13.34-.05.7-.1.47-.12-.24-.1-.26-.08-.68-.1-.3-.16-.28-.06-.25-.17-.23-.22-.6-.14.03-.23.16-.06.11-.02.18-.06.15-.27.24-.22.3-.17.32-.06.3.14.22.15.1.22.2.07.1.22.67v.68l-.17.3-.42.57-.31.19-.16-.1-.14-.35-.02-.14.1-.32v-.3l-.1-.1-.11.02-.05.04-.27.39-.11.1-.17.02-.14-.03-.8-.34-.66-.34-.52-.31-.38-.48-.08-.35v-.38l-.17-.54-.02-.2.01-.17.17-.33.2-.17.11-.13.1-.13.06-.18-.02-.18-.07-.11-.32-.4-.27-.24-.56-.22-.13-.12-.15-.09-.16-.03h-.15l-.17.06-.04.14.01.13-.01.13-.24.72-.3-.16-.3-.18-.07-.13-.03-.15-.05-.1-.07-.1-.13.24-.17.18-.2.05h-.2l-.07-.08-.07-.46-.22-.14-.27.03-.33.25-.06.1-.08.21-.35.62-.2.47-.2.46-.1.15-.12.1-.2-.04-.17-.1-.17-.3.06-.35.19-.22.15-.24.19-.82.01-.3.04-.12.3-.38.27-.23.14-.05.56-.13.23-.11h.37l.3-.07.23-.18.02-.18-.01-.2.05-.11.09-.1.13-.13.14-.1.4-.07.14-.08.1-.13.16-.25.18.07.18.09.32.08.29.2.18.32.03.16.05.52-.06.12-.28.24.13.03.36-.23.19-.08.45-.12.1-.08.08-.11.16-.32.12-.34.09-.15.13-.11.13-.02.47.23.31-.11.08-.35.07-.52.06-.14.17-.14.21.05.29.18.26.07.1-.15.1-.3h.1l.35.1.35-.06.1-.35-.07-.38-.27-1.1.16-.25h.14l.34.29.65.4.22.23.12.32zm-.1-.76l-.05.07-.08-.15.07-.33.05-.05.07.2-.06.26zm-6.32 1l.03.29-.26.08-.2-.07-.14-.18v-.06h.12l.25-.15.08-.02.13.1zm3.09.26l-.08.17-.31-.14-.08-.12.04-.14.15-.05h.08l.15.15.05.13zm-20.72 2.6l-.19.06-.04-.18.02-.17.14.02.06.06.01.2zm-.76.92l-.15.21-.16-.24.02-.34.05-.1.23-.05v.52zm16.28 1.32l.03.07-.01.06-.3.13h-.1l-.01-.22.07-.1.13.1.12-.11.07.07zm7.92 1.24l-.05.16-.17-.37-.07-.1.1-.3.18.14v.47zm-10.27 1.49l-.28.04h-.09l-.22-.29-.02-.12-.18-.14.06-.15.23-.03.4-.18.64.28.1.1-.2.07-.14.27-.3.15zm-2.6.98l.16.2.19-.05.3.05.06.1v.08l-.33.19-.22-.2-.37.13-.18-.08-.25.08-.15-.16.07-.15.39-.25.34.06zm-2.52 2.27l-.07.17-.1.08-.1-.05-.1-.08-.05.13-.24.05-.15.2-.22.05-.16-.03.02-.17.43-.27.27-.1.24-.19.12-.02.06.16.05.07z"
		},
		"PN": {
			"pts":{},
			"map":"M113.92 528.34l-.03.04-.06-.03-.06-.1-.02-.08.05-.05.08.02.03.1v.1z"
		},
		"PW": {
			"pts":{},
			"map":"M844.73 438.37l-.17.06-.08-.22.03-.24.1-.2.13-.05.02-.02.12-.25.02.13-.07.46-.1.17v.16zm-9.52 12.08l-.06.01h-.04v-.05l.05-.04.05-.02.05.02v.03l-.05.05z"
		},
		"SB": {
			"pts":{},
			"map":"M908.37 479.1l.09.1-.22.17-.28-.09-.07-.1v-.04l-.2.03-.4-.08-.54-.4-.58-.75-.56-.42-.1-.13-.02-.21.08-.08.34.08.45.35.73.36.2.18.13.44.12.13.4.33.21.08.11.01.1.05zm-4.58-.64l-.28.06-.17-.08.07-.22.1-.1.35.19-.07.15zm11.23 4v.07l-.37-.23-.28-.29-.81-.31-.18-.16-.14-.02-.41-.26-.41-.18-.25-.22-.06-.1-.15-.06-.25-.24-.25-.17-.1-.3-.23-.2-.06-.1.77.17.36.33.3.19.1.13.28.2h.25l.24.2.23.05.18.1 1.14.82-.14.23.15.15.09.2zm-8.87-1.7l-.06.04-.09-.16-.07-.04v-.17l-.28-.27-.02-.19.17-.18.21.1.22.23.26.08-.06.15-.22.28-.06.13zm1.34.51l-.06.05-.3-.02-.23-.29v-.21l.18-.2.22-.03.12.07.1.17.05.2-.03.19-.05.07zm-1.58.18l-.03.07-.15-.34.01-.18.02-.11.06-.03.11.38-.02.21zm3.22.2l.18.23.2.5-.03.18-.15.01-.04.11-.2-.25-.25-.06-.19-.15-.06-.3-.02-.19-.15-.03-.43.05-.13.16-.2-.06-.04-.14.03-.14.26-.15.05-.18.26-.31.16-.06.3.12.04.44.1.14.31.08zm8.3.2l.7.83-.03.15-.1.1-.02.27.1.1.18.06.32.3.13.36.01.11.13.17.01.35.3.48.03.24-.03.1-.12-.06-.37-.55-.41-.24-.05-.1-.42-.32-.28-.54-.3-.96.13-.23-.34-.46.02-.13.14.03h.1l.06-.06h.12zm-2.95.54l-.13.04-.2-.1-.08-.1.04-.15.12-.05.13.1.01.1.11.16zm-6.39.57v.04l-.15-.07-.33-.38.06-.13.3-.24.1-.04.1.16-.08.22-.1.06-.05.2.15.19zm2-.08l-.27.22-.2-.07-.16-.19.05-.23.03-.06.09-.01.07-.05.1-.1.29.08.07.06-.17.14.05.04.04.07.01.1zm.26.39h-.06l-.07-.1.16-.3.07.24.05.1-.15.06zm-1.54-.18l-.01.1-.15-.03-.36-.15-.01-.06.2-.03.14.02.13.1.06.05zm4.29 1.02h-.04l-.13-.03h-.16l-.1-.1.12-.15.14-.09.07.02.06.07.15.02.01.18-.12.08zm2.72-.36l.16.04h.08l.18.14.24.23-.1.11-.2-.06-.06.02-.02-.01-.04-.12-.22-.1-.2-.01-.02-.14.2-.1zm-1.16.78l.61.45.27-.05.8.01.48.32.27.15.16.29.2.06.1.15.08.27-.05.04-.25.1-.18.04-.46-.1-.45-.2-.89-.02-.4-.06-.15-.08-.14-.1-.2-.25-.17-.3-.02-.17-.02-.32.05-.12.17-.12h.19zm5 .99l.03.3-.02.1-.21-.22-.1.08-.1-.1.01-.23.02-.25-.04-.18-.1-.27.1.05.4.72zm.46 2.13l.35.17.2-.03.31.11.23-.06.15.15.36.57v.19l.24.13-.2.02-.28-.06-.22.04-.23-.1-.38-.07-.33-.13-.69-.42v-.21l-.1-.1-.04-.27-.25-.08-.28-.02-.03-.12.06-.22h.22l.26.1.49.3.12.07.04.04zm12.28 1.04l-.22.05-.07-.01-.17.02-.18.2-.13-.02h-.1l-.08-.16v-.08l.13.01.06-.16.14-.08.31-.04.29.06.1.03-.09.15.01.03zm-15.45 2.93l-.19.1-.18-.05-.13-.07-.11-.22-.23-.13-.34-.06-.14-.1-.03-.04-.23-.04-.07-.12.02-.12.04-.07.21.06 1.03.58.25.17.1.11zm17.67-.37l-.25.04h-.1l-.16-.25.12-.06.18.02.06.15.15.1z"
		},
		"SG": {
			"pts":{},
			"map":"M759.6 455.13l-.43.18-.47-.16.15-.27.32-.07.25.09.15.06.1.08-.08.1z"
		},
		"TK": {
			"pts":{},
			"map":"M991.86 482.6h-.01l-.02-.03-.01-.04-.02-.03.03.02.02.03v.04zm3.6 2.16h-.01l-.01-.01-.03-.02-.01-.03.03.02.02.02v.02z"
		},
		"TL": {
			"pts":{},
			"map":"M819.85 481.36l-.19.48-.2-.1.22-.27.1-.08.07-.03zm-1.6 3.84l-.1-.37-.1-.15-.08-.1-.03-.1v-.11l.05-.06.34-.01.14-.2v-.22l-.06-.07-.07-.04-.35.17-.1-.03-.07-.06.02-.25.3-.23.24-.42.17-.17.4-.16.17-.04 1.17-.23.28-.02h.75l1-.04.24-.04.32-.1.3-.13.17-.1.18-.07.25.1.44.06.11.06.1.09-.5.44-.55.37-.34.1-.36.08-.27.15-.22.22-.3.12-.32.05-.28.06-.26.13-.35.23-.14.02h-.15l-.3.08-.9.32-.55.36-.4.3zm-2.88-.48l.45-.24.69-.18-.02.13-.07.21-.1.1-.16.19-.1.03-.4-.03-.07.02-.06-.02-.1-.11-.05-.1z"
		},
		"TV": {
			"pts":{},
			"map":"M963.43 475.72h-.04v-.06l.07.04-.03.02zm-2.73.47l-.02.02-.02-.01v-.03l.02-.04.02.06zm6.64 3.32l-.02.02h-.01v-.04l.03.02zm1.45 3.01l-.02.02-.03-.27.05.05.02.02.01.04v.11l-.03.03z"
		},
		"VU": {
			"pts":{},
			"map":"M936.17 497.6l-.04.03-.06-.02-.16-.35.04-.12.2-.1.19.19.01.1v.1l-.02.07-.13.03-.03.07zm.27 1l-.12.15-.31-.05-.07-.04.02-.24.08-.08.19-.07.25.12-.04.22zm-2.33 1.62l.18.95h.2l.1-.06.13-.22.06-.35.1-.05.14.04-.06.1.04.29.1.15.07.03.15.73.05.15v.12l-.3.27h-.44l-.3.16-.2-.02v-.18l-.16-.15-.19-.31.05-.56-.33-1.03v-.26l.1-.34.12-.02.15.28.24.28zm4 1.44l-.04.17-.11-.2-.08-.87.03-.08h.07l.13.6v.38zm-.76.3l-.2.14-.33-.02-.14-.07.43-.4.49-.08-.25.44zm.83 1.54h-.04l-.05-.13-.15-.7.1-.63.06.13.24 1.1-.04.19-.12.04zm-2.76-.7l-.05.07-.3-.2.07-.17.32.06-.04.23zm.54 1.06l.13.06h.06l.05.14.4.28h.1l.1.15.17.07.04.16.13.16-.22.19-.41-.06-.23.22-.22-.05-.04-.12.03-.04-.12-.29-.06-.44-.09-.27-.1-.1-.18.1h-.08l-.19-.2.09-.44.04-.13.15-.02.23.11.22.52zm2.46.7l-.32.02-.45-.09-.18-.12-.07-.13.15-.1.23-.03.27-.3.1.11.1.32.11.1.07.1-.01.11zm.42 1.27l.08.04-.05.12-.38-.14-.31.05h-.09l-.09-.11-.06-.22.03-.15.12-.1.05-.03.1.14.09.09.09.04.19.21.23.06zm0 2.2l.27.42.1.03-.16.3-.35.02-.41-.07.15-.1-.08-.12-.13-.02-.14.05-.06-.02.09-.19.23-.27.07-.02h.06l.06.02.3-.02zm2.46 4.07l-.13.14-.1-.01-.73-.33.03-.13-.03-.35.08-.18.2-.08.15.04.1.27.21.11-.14.1.26.2.1.22zm.44 1.76l-.15.31-.25-.07-.24-.23-.12-.2.08-.38.12-.07.13.02.06.38.37.24zm1.13 1.9l-.1.16h-.15l-.2-.12.04-.14.22-.03.07.01.12.12z"
		},
		"WF": {
			"pts":{},
			"map":"M981.63 495.97l-.05.02-.05-.11.06-.17.07-.06.06.13-.1.19zm-5.25 2.8l-.15.02-.15-.04-.1-.16.04-.06.1.03.1.11.18.06-.02.04z"
		},
		"WS": {
			"pts":{},
			"map":"M992.26 496.34l.32.27.12.36-.13.34-.3-.09-.43.07-.14-.02-.34-.42-.24-.18-.1-.18.3.02.45-.12.5-.05zm2.45 1.66h-.76l-.38-.13h-.13l-.33-.27-.04-.15.16-.09.36-.05.7.2.1.19.17.02.13.08.03.13-.01.07z"
		}
	}
}
